<?xml version='1.0' encoding='UTF-8' ?>
<svg xmlns='http://www.w3.org/2000/svg' xmlns:xlink='http://www.w3.org/1999/xlink' class='svglite' width='710.00pt' height='593.00pt' viewBox='0 0 710.00 593.00'>
<defs>
  <style type='text/css'><![CDATA[
    .svglite line, .svglite polyline, .svglite polygon, .svglite path, .svglite rect, .svglite circle {
      fill: none;
      stroke: #000000;
      stroke-linecap: round;
      stroke-linejoin: round;
      stroke-miterlimit: 10.00;
    }
    .svglite text {
      white-space: pre;
    }
  ]]></style>
</defs>
<rect width='100%' height='100%' style='stroke: none; fill: #FFFFFF;'/>
<defs>
  <clipPath id='cpMC4wMHw3MTAuMDB8MC4wMHw1OTMuMDA='>
    <rect x='0.00' y='0.00' width='710.00' height='593.00' />
  </clipPath>
</defs>
<g clip-path='url(#cpMC4wMHw3MTAuMDB8MC4wMHw1OTMuMDA=)'>
<rect x='0.00' y='0.00' width='710.00' height='593.00' style='stroke-width: 1.07; stroke: #FFFFFF; fill: #FFFFFF;' />
<rect x='84.63' y='28.35' width='483.64' height='485.48' style='stroke-width: 1.07; stroke: none; fill: #FFFFFF;' />
<polyline points='86.65,66.21 87.05,66.21 87.65,66.28 88.26,66.28 88.66,66.28 89.07,66.35 89.67,66.35 90.27,66.42 90.68,66.42 91.08,66.42 91.69,66.49 92.29,66.49 92.69,66.56 93.30,66.56 93.70,66.56 94.30,66.63 94.71,66.63 95.11,66.63 95.72,66.70 96.32,66.70 96.72,66.77 97.13,66.77 97.73,66.77 98.34,66.84 98.74,66.91 99.34,66.98 99.75,67.05 100.35,67.12 100.75,67.18 101.36,67.25 101.76,67.25 102.37,67.32 102.77,67.39 103.17,67.46 103.78,67.53 104.38,67.60 104.78,67.67 105.39,67.74 105.79,67.81 106.19,67.88 106.80,67.88 107.20,67.95 107.81,68.02 108.41,68.09 108.81,68.16 109.42,68.23 109.82,68.29 110.43,68.36 110.83,68.43 111.43,68.50 111.84,68.57 112.44,68.57 112.84,68.64 113.45,68.71 113.85,68.78 114.46,68.85 114.86,68.92 115.46,68.99 115.87,69.06 116.47,69.13 116.87,69.20 117.28,69.20 117.88,69.27 118.49,69.33 118.89,69.40 119.49,69.47 119.90,69.47 120.50,69.54 120.90,69.61 121.51,69.68 121.91,69.75 122.52,69.82 122.92,69.82 123.52,69.89 123.93,69.96 124.53,70.03 124.94,70.10 125.34,70.10 125.94,70.17 126.55,70.24 126.95,70.31 127.35,70.38 127.96,70.38 128.56,70.44 128.97,70.51 129.37,70.58 129.97,70.65 130.58,70.65 130.98,70.72 131.59,70.79 131.99,70.86 132.59,70.93 133.00,70.93 133.60,71.00 134.00,71.14 134.61,71.21 135.01,71.28 135.62,71.35 136.02,71.42 136.62,71.55 137.03,71.62 137.43,71.69 138.03,71.76 138.64,71.83 139.04,71.97 139.44,72.04 140.05,72.11 140.65,72.18 141.06,72.25 141.66,72.39 142.06,72.46 142.67,72.53 143.07,72.59 143.68,72.66 144.08,72.80 144.68,72.87 145.09,72.94 145.69,73.01 146.09,73.08 146.70,73.22 147.10,73.29 147.50,73.36 148.11,73.43 148.71,73.57 149.12,73.70 149.52,73.77 150.12,73.91 150.73,73.98 151.13,74.12 151.74,74.26 152.14,74.33 152.74,74.47 153.15,74.54 153.75,74.68 154.15,74.74 154.76,74.88 155.16,75.02 155.77,75.09 156.17,75.23 156.77,75.30 157.18,75.44 157.58,75.51 158.19,75.65 158.79,75.78 159.19,75.85 159.60,75.99 160.20,76.06 160.80,76.20 161.21,76.27 161.81,76.41 162.22,76.55 162.82,76.62 163.22,76.76 163.83,76.89 164.23,76.96 164.83,77.10 165.24,77.24 165.84,77.31 166.25,77.45 166.85,77.59 167.25,77.66 167.66,77.80 168.26,77.93 168.87,78.00 169.27,78.14 169.87,78.28 170.28,78.35 170.88,78.49 171.28,78.63 171.69,78.70 172.29,78.84 172.90,78.97 173.30,79.04 173.70,79.18 174.31,79.32 174.91,79.46 175.31,79.53 175.92,79.67 176.32,79.81 176.93,79.88 177.33,80.02 177.73,80.15 178.34,80.22 178.94,80.36 179.34,80.50 179.95,80.57 180.35,80.71 180.96,80.85 181.36,80.99 181.76,81.06 182.37,81.19 182.97,81.33 183.37,81.47 183.98,81.54 184.38,81.68 184.99,81.82 185.39,81.89 185.99,82.03 186.40,82.17 187.00,82.30 187.40,82.37 187.81,82.51 188.41,82.65 189.02,82.79 189.42,82.86 190.02,83.00 190.43,83.14 191.03,83.27 191.43,83.41 191.84,83.55 192.44,83.69 193.05,83.83 193.45,83.97 194.05,84.11 194.46,84.32 195.06,84.45 195.47,84.59 196.07,84.73 196.47,84.87 197.08,85.01 197.48,85.15 197.88,85.29 198.49,85.42 199.09,85.56 199.50,85.70 200.10,85.84 200.50,85.98 201.11,86.12 201.51,86.33 201.91,86.47 202.52,86.60 203.12,86.67 203.53,86.81 204.13,86.88 204.53,87.02 205.14,87.09 205.54,87.23 206.15,87.30 206.55,87.37 207.15,87.51 207.56,87.57 207.96,87.71 208.56,87.78 209.17,87.92 209.57,87.99 210.18,88.13 210.58,88.20 211.18,88.34 211.59,88.41 211.99,88.48 212.59,88.62 213.20,88.68 213.60,88.82 214.21,88.89 214.61,89.03 215.21,89.17 215.62,89.38 216.22,89.59 216.62,89.72 217.23,89.93 217.63,90.14 218.03,90.28 218.64,90.49 219.24,90.70 219.65,90.90 220.25,91.04 220.65,91.25 221.26,91.46 221.66,91.60 222.07,91.81 222.67,92.01 223.27,92.22 223.68,92.36 224.28,92.57 224.68,92.78 225.29,92.92 225.69,93.12 226.30,93.33 226.70,93.54 227.30,93.68 227.71,93.89 228.11,94.09 228.72,94.23 229.32,94.44 229.72,94.58 230.33,94.72 230.73,94.86 231.33,95.00 231.74,95.13 232.14,95.20 232.75,95.34 233.35,95.48 233.75,95.62 234.36,95.76 234.76,95.90 235.37,96.04 235.77,96.17 236.37,96.31 236.78,96.38 237.38,96.52 237.78,96.66 238.19,96.80 238.79,96.94 239.40,97.08 239.80,97.22 240.40,97.35 240.81,97.49 241.41,97.56 241.81,97.70 242.22,97.84 242.82,97.98 243.43,98.19 243.83,98.39 244.43,98.60 244.84,98.81 245.44,99.02 245.84,99.23 246.45,99.43 246.85,99.64 247.46,99.85 247.86,100.06 248.26,100.27 248.87,100.47 249.47,100.68 249.87,100.89 250.28,101.10 250.88,101.31 251.49,101.52 251.89,101.72 252.49,101.93 252.90,102.14 253.50,102.35 253.90,102.56 254.51,102.76 254.91,102.97 255.32,103.18 255.92,103.39 256.52,103.60 256.93,103.80 257.53,104.01 257.93,104.22 258.34,104.43 258.94,104.64 259.55,104.91 259.95,105.12 260.35,105.33 260.96,105.54 261.56,105.75 261.97,105.95 262.57,106.16 262.97,106.37 263.58,106.58 263.98,106.79 264.58,106.99 264.99,107.20 265.39,107.41 266.00,107.62 266.60,107.83 267.00,108.03 267.61,108.31 268.01,108.52 268.41,108.73 269.02,108.94 269.62,109.14 270.03,109.35 270.43,109.56 271.03,109.77 271.64,109.98 272.04,110.18 272.65,110.39 273.05,110.60 273.65,110.88 274.06,111.09 274.66,111.29 275.06,111.50 275.47,111.78 276.07,111.99 276.68,112.20 277.08,112.47 277.68,112.68 278.09,112.89 278.49,113.10 279.09,113.37 279.70,113.58 280.10,113.79 280.71,114.07 281.11,114.28 281.71,114.48 282.12,114.76 282.72,114.97 283.12,115.18 283.73,115.39 284.13,115.66 284.74,115.87 285.14,116.08 285.74,116.36 286.15,116.56 286.75,116.77 287.15,116.98 287.76,117.19 288.16,117.47 288.57,117.67 289.17,117.88 289.77,118.09 290.18,118.30 290.78,118.58 291.18,118.78 291.79,118.99 292.19,119.20 292.80,119.41 293.20,119.69 293.80,119.89 294.21,120.10 294.81,120.31 295.22,120.52 295.82,120.80 296.22,121.00 296.83,121.21 297.23,121.42 297.83,121.63 298.24,121.84 298.64,122.11 299.25,122.32 299.85,122.53 300.25,122.74 300.86,122.95 301.26,123.22 301.87,123.50 302.27,123.78 302.87,124.06 303.28,124.40 303.88,124.68 304.28,125.03 304.89,125.30 305.29,125.58 305.90,125.93 306.30,126.21 306.90,126.55 307.31,126.83 307.91,127.11 308.31,127.45 308.72,127.73 309.32,128.08 309.93,128.36 310.33,128.63 310.93,128.98 311.34,129.26 311.94,129.60 312.34,129.88 312.95,130.16 313.35,130.51 313.96,130.78 314.36,131.13 314.96,131.41 315.37,131.68 315.97,132.03 316.37,132.31 316.98,132.66 317.38,132.93 317.99,133.21 318.39,133.56 318.79,133.83 319.40,134.11 320.00,134.39 320.40,134.67 321.01,134.94 321.41,135.29 322.02,135.57 322.42,135.85 323.02,136.12 323.43,136.40 324.03,136.68 324.43,136.96 325.04,137.23 325.44,137.58 326.05,137.86 326.45,138.13 327.05,138.41 327.46,138.69 328.06,138.97 328.47,139.24 328.87,139.59 329.47,139.87 330.08,140.15 330.48,140.42 331.08,140.70 331.49,140.98 332.09,141.26 332.50,141.60 333.10,141.88 333.50,142.16 334.11,142.43 334.51,142.71 335.12,142.99 335.52,143.34 336.12,143.61 336.53,143.89 337.13,144.24 337.53,144.51 338.14,144.79 338.54,145.14 338.94,145.42 339.55,145.69 340.15,146.04 340.56,146.32 341.16,146.60 341.56,146.94 342.17,147.22 342.57,147.50 343.18,147.84 343.58,148.12 344.18,148.47 344.59,148.75 345.19,149.02 345.59,149.37 346.20,149.65 346.60,149.92 347.21,150.27 347.61,150.55 348.21,150.83 348.62,151.17 349.02,151.45 349.62,151.73 350.23,152.07 350.63,152.35 351.24,152.63 351.64,152.98 352.24,153.25 352.65,153.53 353.25,153.88 353.65,154.15 354.26,154.50 354.66,154.78 355.27,155.13 355.67,155.40 356.27,155.75 356.68,156.03 357.28,156.37 357.68,156.65 358.29,157.00 358.69,157.28 359.10,157.55 359.70,157.90 360.30,158.18 360.71,158.52 361.31,158.80 361.72,159.15 362.32,159.43 362.72,159.77 363.33,160.05 363.73,160.40 364.33,160.67 364.74,161.02 365.34,161.30 365.75,161.65 366.35,161.92 366.75,162.27 367.36,162.55 367.76,162.89 368.36,163.17 368.77,163.45 369.17,163.80 369.78,164.07 370.38,164.42 370.78,164.70 371.39,165.04 371.79,165.32 372.40,165.67 372.80,165.95 373.40,166.29 373.81,166.57 374.41,166.99 374.81,167.40 375.42,167.82 375.82,168.30 376.43,168.72 376.83,169.14 377.43,169.55 377.84,169.97 378.44,170.38 378.84,170.80 379.25,171.22 379.85,171.63 380.46,172.05 380.86,172.46 381.46,172.88 381.87,173.30 382.47,173.71 382.87,174.13 383.48,174.55 383.88,174.96 384.49,175.38 384.89,175.79 385.49,176.21 385.90,176.63 386.50,177.04 386.90,177.46 387.51,177.87 387.91,178.29 388.52,178.71 388.92,179.12 389.32,179.54 389.93,179.95 390.53,180.37 390.93,180.79 391.54,181.20 391.94,181.62 392.55,182.04 392.95,182.45 393.55,182.87 393.96,183.28 394.56,183.70 394.96,184.12 395.57,184.53 395.97,184.95 396.58,185.36 396.98,185.78 397.58,186.20 397.99,186.61 398.59,187.03 399.00,187.51 399.40,187.93 400.00,188.35 400.61,188.76 401.01,189.18 401.61,189.59 402.02,190.01 402.62,190.43 403.03,190.84 403.63,191.26 404.03,191.74 404.64,192.16 405.04,192.58 405.65,192.99 406.05,193.41 406.65,193.83 407.06,194.24 407.66,194.66 408.06,195.07 408.67,195.49 409.07,195.98 409.47,196.39 410.08,196.81 410.68,197.22 411.09,197.64 411.69,198.06 412.09,198.47 412.70,198.89 413.10,199.30 413.50,199.72 414.11,200.21 414.71,200.62 415.12,201.04 415.52,201.45 416.12,201.87 416.73,202.29 417.13,202.70 417.74,203.12 418.14,203.60 418.74,204.16 419.15,204.64 419.55,205.13 420.15,205.62 420.76,206.17 421.16,206.66 421.77,207.14 422.17,207.63 422.77,208.18 423.18,208.67 423.58,209.15 424.18,209.64 424.79,210.19 425.19,210.68 425.60,211.16 426.20,211.65 426.80,212.20 427.21,212.69 427.81,213.18 428.21,213.66 428.82,214.22 429.22,214.70 429.63,215.19 430.23,215.67 430.83,216.23 431.24,216.71 431.84,217.20 432.25,217.68 432.85,218.24 433.25,218.72 433.66,219.21 434.26,219.69 434.86,220.25 435.27,220.73 435.67,221.22 436.28,221.71 436.88,222.26 437.28,222.82 437.89,223.30 438.29,223.86 438.90,224.41 439.30,224.97 439.70,225.45 440.31,226.01 440.91,226.56 441.31,227.12 441.92,227.60 442.32,228.16 442.93,228.71 443.33,229.27 443.73,229.75 444.34,230.31 444.94,230.86 445.34,231.42 445.75,231.90 446.35,232.46 446.96,233.01 447.36,233.57 447.96,234.05 448.37,234.61 448.97,235.16 449.37,235.72 449.78,236.20 450.38,236.76 450.99,237.31 451.39,237.87 451.99,238.35 452.40,238.91 453.00,239.46 453.40,240.02 453.81,240.57 454.41,241.26 455.02,241.96 455.42,242.65 455.82,243.34 456.43,244.04 457.03,244.73 457.43,245.42 458.04,246.12 458.44,246.81 459.05,247.51 459.45,248.20 459.85,248.96 460.46,249.66 461.06,250.35 461.46,251.04 462.07,251.74 462.47,252.43 463.08,253.12 463.48,253.82 463.88,254.51 464.49,255.20 465.09,255.90 465.50,256.59 465.90,257.28 466.50,258.05 467.11,258.74 467.51,259.43 468.11,260.13 468.52,260.82 469.12,261.52 469.53,262.21 469.93,262.90 470.53,263.60 471.14,264.29 471.54,264.98 472.15,265.68 472.55,266.37 473.15,267.06 473.56,267.83 474.16,268.52 474.56,269.21 475.17,269.91 475.57,270.60 475.97,271.29 476.58,271.99 477.18,272.68 477.59,273.37 478.19,274.07 478.59,274.76 479.20,275.52 479.60,276.29 480.00,277.05 480.61,277.74 481.21,278.51 481.62,279.27 482.22,280.03 482.62,280.73 483.23,281.49 483.63,282.25 484.24,283.01 484.64,283.78 485.24,284.47 485.65,285.23 486.05,286.00 486.65,286.76 487.26,287.45 487.66,288.22 488.27,288.98 488.67,289.74 489.27,290.44 489.68,291.20 490.08,291.96 490.68,292.72 491.29,293.42 491.69,294.18 492.30,294.94 492.70,295.71 493.30,296.40 493.71,297.16 494.31,297.93 494.71,298.69 495.32,299.38 495.72,300.15 496.13,300.91 496.73,301.67 497.33,302.43 497.74,303.13 498.34,303.89 498.75,304.72 499.35,305.62 499.75,306.53 500.16,307.43 500.76,308.26 501.36,309.16 501.77,310.06 502.37,310.96 502.78,311.87 503.38,312.70 503.78,313.60 504.39,314.50 504.79,315.40 505.40,316.30 505.80,317.14 506.20,318.04 506.81,318.94 507.41,319.84 507.81,320.74 508.42,321.58 508.82,322.48 509.43,323.38 509.83,324.28 510.23,325.18 510.84,326.01 511.44,326.92 511.84,327.82 512.45,328.72 512.85,329.62 513.46,330.45 513.86,331.35 514.46,332.26 514.87,333.16 515.47,334.06 515.87,334.89 516.28,335.79 516.88,336.90 517.49,338.01 517.89,339.12 518.49,340.23 518.90,341.34 519.50,342.45 519.90,343.56 520.31,344.67 520.91,345.85 521.52,346.96 521.92,348.07 522.52,349.18 522.93,350.29 523.53,351.40 523.93,352.51 524.54,353.62 524.94,354.73 525.55,355.91 525.95,357.02 526.35,358.13 526.96,359.24 527.56,360.34 527.96,361.45 528.57,362.56 528.97,363.67 529.58,364.78 529.98,365.89 530.38,367.07 530.99,368.18 531.59,369.29 532.00,370.40 532.60,371.51 533.00,372.76 533.61,374.15 534.01,375.60 534.61,376.99 535.02,378.38 535.62,379.76 536.03,381.22 536.43,382.61 537.03,383.99 537.64,385.38 538.04,386.77 538.65,388.23 539.05,389.61 539.65,391.00 540.06,392.39 540.46,393.77 541.06,395.23 541.67,396.62 542.07,398.00 542.68,399.39 543.08,400.85 543.68,402.23 544.09,403.62 544.69,405.22 545.09,406.95 545.70,408.62 546.10,410.28 546.50,411.94 547.11,413.61 547.71,415.27 548.12,417.01 548.72,418.67 549.12,420.34 549.73,422.00 550.13,423.67 550.53,425.33 551.14,426.99 551.74,428.73 552.15,430.39 552.75,432.06 553.15,433.72 553.76,435.59 554.16,437.54 554.77,439.41 555.17,441.35 555.77,443.22 556.18,445.16 556.58,447.04 557.18,448.98 557.79,450.92 558.19,452.79 558.80,454.74 559.20,456.61 559.80,459.38 560.21,462.23 560.61,465.07 561.21,467.84 561.82,470.69 562.22,473.53 562.83,476.37 563.23,479.15 563.83,481.99 564.24,485.11 564.84,488.58 565.24,492.12 565.85,495.65 566.25,499.12 566.66,502.66 567.26,506.20 ' style='stroke-width: 1.20; stroke: #F49323; stroke-linecap: butt;' />
<polyline points='218.03,30.50 218.64,32.09 219.24,33.69 219.65,35.42 220.25,37.09 220.65,38.82 221.26,40.41 221.66,41.94 222.07,43.47 222.67,45.06 223.27,46.59 223.68,48.18 224.28,49.64 224.68,51.09 225.29,52.55 225.69,54.01 226.30,55.39 226.70,56.85 227.30,58.31 227.71,59.69 228.11,61.15 228.72,62.68 229.32,64.20 229.72,65.66 230.33,67.18 230.73,68.71 231.33,70.10 231.74,71.48 232.14,72.87 232.75,74.26 233.35,75.65 233.75,77.03 234.36,78.42 234.76,79.81 235.37,81.19 235.77,82.51 236.37,83.90 236.78,85.29 237.38,86.67 237.78,88.06 238.19,89.45 238.79,90.63 239.40,91.81 239.80,92.98 240.40,94.23 240.81,95.48 241.41,96.87 241.81,98.26 242.22,99.43 242.82,100.68 243.43,101.86 243.83,103.04 244.43,104.29 244.84,105.54 245.44,106.92 245.84,108.38 246.45,109.77 246.85,111.09 247.46,112.26 247.86,113.51 248.26,114.76 248.87,116.01 249.47,117.26 249.87,118.51 250.28,119.62 250.88,120.73 251.49,121.84 251.89,123.01 252.49,124.12 252.90,125.30 253.50,126.62 253.90,127.94 254.51,129.19 254.91,130.51 255.32,131.75 255.92,133.00 256.52,134.25 256.93,135.50 257.53,136.68 257.93,137.93 258.34,139.17 258.94,140.28 259.55,141.46 259.95,142.57 260.35,143.68 260.96,144.86 261.56,145.83 261.97,146.87 262.57,147.84 262.97,148.88 263.58,149.92 263.98,151.31 264.58,152.63 264.99,154.02 265.39,155.40 266.00,156.37 266.60,157.41 267.00,158.39 267.61,159.43 268.01,160.60 268.41,161.78 269.02,163.03 269.62,164.28 270.03,165.39 270.43,166.50 271.03,167.54 271.64,168.65 272.04,169.76 272.65,170.87 273.05,171.98 273.65,173.09 274.06,174.27 274.66,175.38 275.06,176.49 275.47,177.67 276.07,178.78 276.68,179.89 277.08,181.06 277.68,182.17 278.09,183.35 278.49,184.53 279.09,185.50 279.70,186.47 280.10,187.38 280.71,188.35 281.11,189.32 281.71,190.29 282.12,191.26 282.72,192.30 283.12,193.27 283.73,194.31 284.13,195.28 284.74,196.32 285.14,197.29 285.74,198.33 286.15,199.30 286.75,200.34 287.15,201.32 287.76,202.36 288.16,203.33 288.57,204.37 289.17,205.34 289.77,206.38 290.18,207.35 290.78,208.39 291.18,209.36 291.79,210.40 292.19,211.37 292.80,212.41 293.20,213.45 293.80,214.56 294.21,215.60 294.81,216.64 295.22,217.68 295.82,218.72 296.22,219.63 296.83,220.46 297.23,221.36 297.83,222.26 298.24,223.09 298.64,223.99 299.25,224.90 299.85,225.73 300.25,226.63 300.86,227.53 301.26,228.36 301.87,229.27 302.27,230.17 302.87,231.07 303.28,231.90 303.88,232.80 304.28,233.70 304.89,234.61 305.29,235.51 305.90,236.41 306.30,237.24 306.90,238.14 307.31,238.98 307.91,239.81 308.31,240.64 308.72,241.47 309.32,242.23 309.93,243.07 310.33,243.90 310.93,244.66 311.34,245.49 311.94,246.26 312.34,247.09 312.95,247.85 313.35,248.68 313.96,249.52 314.36,250.35 314.96,251.18 315.37,252.08 315.97,252.92 316.37,253.75 316.98,254.58 317.38,255.27 317.99,256.04 318.39,256.80 318.79,257.49 319.40,258.26 320.00,258.95 320.40,259.71 321.01,260.47 321.41,261.17 322.02,261.93 322.42,262.62 323.02,263.39 323.43,264.08 324.03,264.84 324.43,265.54 325.04,266.23 325.44,266.92 326.05,267.62 326.45,268.31 327.05,269.01 327.46,269.70 328.06,270.39 328.47,271.09 328.87,271.85 329.47,272.54 330.08,273.24 330.48,274.00 331.08,274.69 331.49,275.39 332.09,276.08 332.50,276.77 333.10,277.47 333.50,278.16 334.11,278.85 334.51,279.55 335.12,280.24 335.52,280.93 336.12,281.63 336.53,282.25 337.13,282.95 337.53,283.57 338.14,284.26 338.54,284.89 338.94,285.58 339.55,286.21 340.15,286.90 340.56,287.59 341.16,288.29 341.56,288.98 342.17,289.60 342.57,290.30 343.18,290.99 343.58,291.68 344.18,292.24 344.59,292.86 345.19,293.49 345.59,294.11 346.20,294.67 346.60,295.29 347.21,295.91 347.61,296.47 348.21,297.09 348.62,297.72 349.02,298.27 349.62,298.90 350.23,299.52 350.63,300.15 351.24,300.70 351.64,301.32 352.24,301.95 352.65,302.50 353.25,303.20 353.65,303.82 354.26,304.45 354.66,305.07 355.27,305.69 355.67,306.39 356.27,307.01 356.68,307.64 357.28,308.26 357.68,308.88 358.29,309.51 358.69,310.13 359.10,310.76 359.70,311.38 360.30,312.00 360.71,312.63 361.31,313.18 361.72,313.74 362.32,314.29 362.72,314.92 363.33,315.47 363.73,316.03 364.33,316.58 364.74,317.21 365.34,317.76 365.75,318.32 366.35,318.87 366.75,319.43 367.36,320.05 367.76,320.60 368.36,321.16 368.77,321.71 369.17,322.34 369.78,322.89 370.38,323.45 370.78,324.07 371.39,324.70 371.79,325.25 372.40,325.88 372.80,326.50 373.40,327.05 373.81,327.68 374.41,328.30 374.81,328.86 375.42,329.34 375.82,329.83 376.43,330.31 376.83,330.87 377.43,331.35 377.84,331.84 378.44,332.33 378.84,332.88 379.25,333.37 379.85,333.85 380.46,334.34 380.86,334.89 381.46,335.45 381.87,335.93 382.47,336.49 382.87,337.04 383.48,337.60 383.88,338.08 384.49,338.64 384.89,339.19 385.49,339.68 385.90,340.16 386.50,340.72 386.90,341.20 387.51,341.69 387.91,342.17 388.52,342.73 388.92,343.21 389.32,343.70 389.93,344.19 390.53,344.74 390.93,345.16 391.54,345.64 391.94,346.13 392.55,346.61 392.95,347.10 393.55,347.58 393.96,348.00 394.56,348.49 394.96,348.97 395.57,349.46 395.97,349.94 396.58,350.43 396.98,350.84 397.58,351.33 397.99,351.81 398.59,352.30 399.00,352.79 399.40,353.20 400.00,353.69 400.61,354.17 401.01,354.59 401.61,355.00 402.02,355.35 402.62,355.77 403.03,356.18 403.63,356.53 404.03,356.95 404.64,357.36 405.04,357.71 405.65,358.13 406.05,358.54 406.65,358.96 407.06,359.30 407.66,359.72 408.06,360.14 408.67,360.55 409.07,361.04 409.47,361.45 410.08,361.87 410.68,362.36 411.09,362.77 411.69,363.19 412.09,363.67 412.70,364.09 413.10,364.51 413.50,364.99 414.11,365.41 414.71,365.82 415.12,366.24 415.52,366.59 416.12,367.00 416.73,367.42 417.13,367.84 417.74,368.18 418.14,368.60 418.74,369.01 419.15,369.43 419.55,369.78 420.15,370.19 420.76,370.61 421.16,370.96 421.77,371.37 422.17,371.79 422.77,372.20 423.18,372.55 423.58,372.97 424.18,373.38 424.79,373.73 425.19,374.15 425.60,374.56 426.20,374.91 426.80,375.26 427.21,375.60 427.81,376.02 428.21,376.37 428.82,376.71 429.22,377.06 429.63,377.41 430.23,377.75 430.83,378.10 431.24,378.45 431.84,378.79 432.25,379.14 432.85,379.49 433.25,379.76 433.66,380.11 434.26,380.46 434.86,380.80 435.27,381.08 435.67,381.43 436.28,381.78 436.88,382.05 437.28,382.40 437.89,382.75 438.29,383.09 438.90,383.37 439.30,383.72 439.70,384.06 440.31,384.41 440.91,384.76 441.31,385.10 441.92,385.38 442.32,385.73 442.93,386.08 443.33,386.42 443.73,386.77 444.34,387.12 444.94,387.39 445.34,387.67 445.75,388.02 446.35,388.29 446.96,388.57 447.36,388.92 447.96,389.20 448.37,389.47 448.97,389.82 449.37,390.10 449.78,390.38 450.38,390.72 450.99,391.00 451.39,391.28 451.99,391.62 452.40,391.90 453.00,392.25 453.40,392.53 453.81,392.87 454.41,393.22 455.02,393.50 455.42,393.84 455.82,394.12 456.43,394.47 457.03,394.74 457.43,395.09 458.04,395.37 458.44,395.72 459.05,395.99 459.45,396.34 459.85,396.62 460.46,396.89 461.06,397.17 461.46,397.45 462.07,397.80 462.47,398.07 463.08,398.35 463.48,398.63 463.88,398.91 464.49,399.25 465.09,399.53 465.50,399.81 465.90,400.08 466.50,400.43 467.11,400.71 467.51,400.99 468.11,401.26 468.52,401.54 469.12,401.75 469.53,402.03 469.93,402.23 470.53,402.44 471.14,402.72 471.54,402.93 472.15,403.14 472.55,403.41 473.15,403.62 473.56,403.83 474.16,404.11 474.56,404.32 475.17,404.52 475.57,404.80 475.97,405.01 476.58,405.29 477.18,405.49 477.59,405.77 478.19,406.05 478.59,406.26 479.20,406.53 479.60,406.81 480.00,407.02 480.61,407.30 481.21,407.51 481.62,407.78 482.22,408.06 482.62,408.27 483.23,408.55 483.63,408.75 484.24,409.03 484.64,409.24 485.24,409.52 485.65,409.72 486.05,410.00 486.65,410.21 487.26,410.49 487.66,410.70 488.27,410.97 488.67,411.18 489.27,411.39 489.68,411.67 490.08,411.87 490.68,412.08 491.29,412.29 491.69,412.50 492.30,412.71 492.70,412.92 493.30,413.12 493.71,413.33 494.31,413.54 494.71,413.75 495.32,413.89 495.72,414.09 496.13,414.30 496.73,414.51 497.33,414.72 497.74,414.93 498.34,415.13 498.75,415.41 499.35,415.62 499.75,415.83 500.16,416.11 500.76,416.31 501.36,416.52 501.77,416.80 502.37,417.01 502.78,417.22 503.38,417.49 503.78,417.70 504.39,417.91 504.79,418.19 505.40,418.39 505.80,418.53 506.20,418.67 506.81,418.88 507.41,419.02 507.81,419.16 508.42,419.30 508.82,419.50 509.43,419.64 509.83,419.78 510.23,419.99 510.84,420.13 511.44,420.27 511.84,420.47 512.45,420.61 512.85,420.82 513.46,421.03 513.86,421.24 514.46,421.45 514.87,421.65 515.47,421.79 515.87,422.00 516.28,422.21 516.88,422.42 517.49,422.62 517.89,422.83 518.49,423.04 518.90,423.25 519.50,423.46 519.90,423.67 520.31,423.87 520.91,424.08 521.52,424.22 521.92,424.36 522.52,424.50 522.93,424.64 523.53,424.77 523.93,424.91 524.54,425.05 524.94,425.19 525.55,425.33 525.95,425.47 526.35,425.61 526.96,425.75 527.56,425.88 527.96,426.02 528.57,426.16 528.97,426.30 529.58,426.44 529.98,426.65 530.38,426.79 530.99,426.92 531.59,427.06 532.00,427.20 532.60,427.41 533.00,427.55 533.61,427.69 534.01,427.83 534.61,427.97 535.02,428.10 535.62,428.31 536.03,428.45 536.43,428.59 537.03,428.73 537.64,428.87 538.04,429.01 538.65,429.14 539.05,429.35 539.65,429.49 540.06,429.63 540.46,429.77 541.06,429.91 541.67,430.05 542.07,430.18 542.68,430.32 543.08,430.53 543.68,430.67 544.09,430.81 544.69,430.95 545.09,431.09 545.70,431.22 546.10,431.36 546.50,431.50 547.11,431.64 547.71,431.78 548.12,431.92 548.72,432.06 549.12,432.20 549.73,432.33 550.13,432.47 550.53,432.61 551.14,432.75 551.74,432.82 552.15,432.96 552.75,433.03 553.15,433.17 553.76,433.24 554.16,433.37 554.77,433.44 555.17,433.58 555.77,433.65 556.18,433.79 556.58,433.86 557.18,434.00 557.79,434.07 558.19,434.21 558.80,434.28 559.20,434.42 559.80,434.48 560.21,434.55 560.61,434.69 561.21,434.76 ' style='stroke-width: 1.20; stroke: #3A53A4; stroke-linecap: butt;' />
<polyline points='205.14,31.33 205.54,33.27 206.15,35.14 206.55,37.02 207.15,38.96 207.56,40.76 207.96,42.29 208.56,43.81 209.17,45.27 209.57,46.86 210.18,49.15 210.58,51.37 211.18,53.11 211.59,54.63 211.99,56.16 212.59,57.68 213.20,59.14 213.60,60.67 214.21,62.19 214.61,63.72 215.21,65.17 215.62,66.77 216.22,68.64 216.62,70.51 217.23,72.39 217.63,74.26 218.03,75.72 218.64,77.17 219.24,78.56 219.65,80.02 220.25,81.54 220.65,83.27 221.26,84.94 221.66,86.67 222.07,88.41 222.67,89.86 223.27,91.32 223.68,92.78 224.28,94.23 224.68,95.69 225.29,97.08 225.69,98.46 226.30,99.85 226.70,101.24 227.30,102.62 227.71,104.29 228.11,105.95 228.72,107.62 229.32,109.14 229.72,110.39 230.33,111.64 230.73,112.89 231.33,114.07 231.74,115.32 232.14,116.77 232.75,118.30 233.35,119.82 233.75,121.35 234.36,122.67 234.76,123.99 235.37,125.30 235.77,126.69 236.37,128.01 236.78,129.33 237.38,130.71 237.78,132.10 238.19,133.42 238.79,134.87 239.40,136.40 239.80,137.93 240.40,139.45 240.81,140.84 241.41,142.09 241.81,143.40 242.22,144.65 242.82,145.97 243.43,147.22 243.83,148.47 244.43,149.65 244.84,150.83 245.44,152.07 245.84,153.25 246.45,154.50 246.85,155.75 247.46,157.07 247.86,158.32 248.26,159.63 248.87,160.88 249.47,162.20 249.87,163.45 250.28,164.70 250.88,165.95 251.49,167.19 251.89,168.37 252.49,169.62 252.90,170.80 253.50,171.98 253.90,173.16 254.51,174.48 254.91,175.72 255.32,176.97 255.92,178.22 256.52,179.40 256.93,180.51 257.53,181.62 257.93,182.73 258.34,183.84 258.94,184.95 259.55,186.06 259.95,187.31 260.35,188.49 260.96,189.73 261.56,190.91 261.97,192.09 262.57,193.27 262.97,194.38 263.58,195.49 263.98,196.53 264.58,197.64 264.99,198.75 265.39,199.86 266.00,201.04 266.60,202.22 267.00,203.40 267.61,204.58 268.01,205.69 268.41,206.93 269.02,208.11 269.62,209.36 270.03,210.54 270.43,211.72 271.03,212.97 271.64,214.08 272.04,215.12 272.65,216.16 273.05,217.20 273.65,218.24 274.06,219.35 274.66,220.39 275.06,221.57 275.47,222.75 276.07,223.93 276.68,225.10 277.08,226.28 277.68,227.53 278.09,228.57 278.49,229.54 279.09,230.51 279.70,231.48 280.10,232.46 280.71,233.43 281.11,234.40 281.71,235.37 282.12,236.48 282.72,237.52 283.12,238.63 283.73,239.74 284.13,240.85 284.74,241.89 285.14,243.00 285.74,244.11 286.15,245.22 286.75,246.33 287.15,247.37 287.76,248.48 288.16,249.59 288.57,250.56 289.17,251.53 289.77,252.43 290.18,253.40 290.78,254.30 291.18,255.20 291.79,256.17 292.19,257.08 292.80,258.12 293.20,259.16 293.80,260.20 294.21,261.24 294.81,262.28 295.22,263.32 295.82,264.36 296.22,265.40 296.83,266.37 297.23,267.34 297.83,268.31 298.24,269.28 298.64,270.25 299.25,271.22 299.85,272.20 300.25,273.10 300.86,274.00 301.26,274.97 301.87,275.87 302.27,276.84 302.87,277.74 303.28,278.65 303.88,279.62 304.28,280.45 304.89,281.35 305.29,282.25 305.90,283.15 306.30,284.06 306.90,284.96 307.31,285.79 307.91,286.69 308.31,287.45 308.72,288.29 309.32,289.05 309.93,289.81 310.33,290.64 310.93,291.41 311.34,292.24 311.94,293.00 312.34,293.76 312.95,294.60 313.35,295.36 313.96,296.12 314.36,296.96 314.96,297.72 315.37,298.55 315.97,299.31 316.37,300.08 316.98,300.84 317.38,301.67 317.99,302.43 318.39,303.20 318.79,303.96 319.40,304.72 320.00,305.49 320.40,306.25 321.01,307.01 321.41,307.70 322.02,308.47 322.42,309.23 323.02,309.92 323.43,310.69 324.03,311.45 324.43,312.14 325.04,312.91 325.44,313.67 326.05,314.50 326.45,315.26 327.05,316.03 327.46,316.79 328.06,317.55 328.47,318.32 328.87,319.01 329.47,319.70 330.08,320.33 330.48,321.02 331.08,321.71 331.49,322.34 332.09,323.03 332.50,323.73 333.10,324.42 333.50,325.11 334.11,325.81 334.51,326.50 335.12,327.19 335.52,327.89 336.12,328.58 336.53,329.27 337.13,329.97 337.53,330.66 338.14,331.35 338.54,332.05 338.94,332.67 339.55,333.37 340.15,334.13 340.56,334.82 341.16,335.52 341.56,336.21 342.17,336.90 342.57,337.60 343.18,338.29 343.58,338.98 344.18,339.68 344.59,340.44 345.19,341.13 345.59,341.83 346.20,342.52 346.60,343.28 347.21,343.91 347.61,344.46 348.21,345.09 348.62,345.71 349.02,346.27 349.62,346.89 350.23,347.44 350.63,348.07 351.24,348.69 351.64,349.25 352.24,349.94 352.65,350.64 353.25,351.33 353.65,352.02 354.26,352.72 354.66,353.41 355.27,354.10 355.67,354.80 356.27,355.49 356.68,356.11 357.28,356.74 357.68,357.36 358.29,357.92 358.69,358.54 359.10,359.10 359.70,359.72 360.30,360.34 360.71,360.90 361.31,361.52 361.72,362.08 362.32,362.70 362.72,363.33 363.33,363.88 363.73,364.51 364.33,365.13 364.74,365.69 365.34,366.31 365.75,366.86 366.35,367.49 366.75,368.04 367.36,368.60 367.76,369.15 368.36,369.78 368.77,370.33 369.17,370.89 369.78,371.44 370.38,372.07 370.78,372.62 371.39,373.18 371.79,373.73 372.40,374.28 372.80,374.91 373.40,375.46 373.81,376.02 374.41,376.57 374.81,377.13 375.42,377.68 375.82,378.24 376.43,378.79 376.83,379.28 377.43,379.83 377.84,380.32 378.44,380.87 378.84,381.43 379.25,381.91 379.85,382.47 380.46,382.95 380.86,383.51 381.46,384.06 381.87,384.48 382.47,384.97 382.87,385.45 383.48,385.94 383.88,386.42 384.49,386.91 384.89,387.39 385.49,387.88 385.90,388.36 386.50,388.78 386.90,389.27 387.51,389.75 387.91,390.24 388.52,390.72 388.92,391.21 389.32,391.69 389.93,392.18 390.53,392.66 390.93,393.15 391.54,393.63 391.94,394.12 392.55,394.61 392.95,395.09 393.55,395.58 393.96,396.06 394.56,396.55 394.96,397.03 395.57,397.52 395.97,398.00 396.58,398.49 396.98,398.98 397.58,399.46 397.99,399.95 398.59,400.43 399.00,400.85 399.40,401.33 400.00,401.82 400.61,402.30 401.01,402.79 401.61,403.27 402.02,403.76 402.62,404.18 403.03,404.66 403.63,405.08 404.03,405.49 404.64,405.91 405.04,406.33 405.65,406.81 406.05,407.23 406.65,407.64 407.06,408.06 407.66,408.48 408.06,408.96 408.67,409.38 409.07,409.79 409.47,410.21 410.08,410.70 410.68,411.11 411.09,411.53 411.69,411.94 412.09,412.43 412.70,412.85 413.10,413.26 413.50,413.75 414.11,414.16 414.71,414.58 415.12,415.00 415.52,415.41 416.12,415.83 416.73,416.24 417.13,416.59 417.74,417.01 418.14,417.42 418.74,417.84 419.15,418.26 419.55,418.60 420.15,419.02 420.76,419.43 421.16,419.85 421.77,420.20 422.17,420.61 422.77,420.96 423.18,421.38 423.58,421.72 424.18,422.07 424.79,422.49 425.19,422.83 425.60,423.25 426.20,423.60 426.80,424.01 427.21,424.36 427.81,424.77 428.21,425.12 428.82,425.47 429.22,425.82 429.63,426.16 430.23,426.44 430.83,426.79 431.24,427.13 431.84,427.48 432.25,427.83 432.85,428.17 433.25,428.45 433.66,428.80 434.26,429.14 434.86,429.49 435.27,429.84 435.67,430.18 436.28,430.53 436.88,430.88 437.28,431.22 437.89,431.57 438.29,431.99 438.90,432.33 439.30,432.68 439.70,433.03 440.31,433.37 440.91,433.79 441.31,434.14 441.92,434.48 442.32,434.83 442.93,435.18 443.33,435.52 443.73,435.87 444.34,436.22 444.94,436.56 445.34,436.84 445.75,437.19 446.35,437.54 446.96,437.88 447.36,438.23 447.96,438.58 448.37,438.92 448.97,439.27 449.37,439.62 449.78,439.89 450.38,440.17 450.99,440.45 451.39,440.73 451.99,441.00 452.40,441.35 453.00,441.63 453.40,441.91 453.81,442.18 454.41,442.46 455.02,442.74 455.42,443.01 455.82,443.29 456.43,443.57 457.03,443.92 457.43,444.19 458.04,444.47 458.44,444.75 459.05,445.03 459.45,445.37 459.85,445.65 460.46,445.93 461.06,446.27 461.46,446.55 462.07,446.83 462.47,447.18 463.08,447.45 463.48,447.73 463.88,448.08 464.49,448.36 465.09,448.63 465.50,448.98 465.90,449.26 466.50,449.53 467.11,449.81 467.51,450.09 468.11,450.37 468.52,450.64 469.12,450.99 469.53,451.27 469.93,451.55 470.53,451.82 471.14,452.10 471.54,452.38 472.15,452.66 472.55,452.93 473.15,453.21 473.56,453.49 474.16,453.76 474.56,454.04 475.17,454.25 475.57,454.53 475.97,454.81 476.58,455.08 477.18,455.29 477.59,455.57 478.19,455.85 478.59,456.12 479.20,456.33 479.60,456.61 480.00,456.89 480.61,457.16 481.21,457.37 481.62,457.65 482.22,457.93 482.62,458.20 483.23,458.41 483.63,458.69 484.24,458.97 484.64,459.24 485.24,459.45 485.65,459.73 486.05,460.01 486.65,460.28 487.26,460.49 487.66,460.77 488.27,461.05 488.67,461.32 489.27,461.53 489.68,461.81 490.08,462.09 490.68,462.36 491.29,462.57 491.69,462.78 492.30,462.99 492.70,463.27 493.30,463.47 493.71,463.68 494.31,463.89 494.71,464.17 495.32,464.38 495.72,464.58 496.13,464.79 496.73,465.00 497.33,465.28 497.74,465.49 498.34,465.69 498.75,465.90 499.35,466.18 499.75,466.39 500.16,466.60 500.76,466.80 501.36,467.08 501.77,467.29 502.37,467.50 502.78,467.71 503.38,467.98 503.78,468.19 504.39,468.40 504.79,468.61 505.40,468.88 505.80,469.09 506.20,469.30 506.81,469.51 507.41,469.79 507.81,469.99 508.42,470.13 508.82,470.34 509.43,470.55 509.83,470.69 510.23,470.90 510.84,471.10 511.44,471.24 511.84,471.45 512.45,471.66 512.85,471.80 513.46,472.00 513.86,472.21 514.46,472.35 514.87,472.56 515.47,472.77 515.87,472.91 516.28,473.11 516.88,473.32 517.49,473.53 517.89,473.74 518.49,473.95 518.90,474.09 519.50,474.29 519.90,474.50 520.31,474.71 520.91,474.92 521.52,475.13 521.92,475.33 522.52,475.54 522.93,475.75 523.53,475.96 523.93,476.17 524.54,476.37 524.94,476.58 525.55,476.72 525.95,476.93 526.35,477.07 526.96,477.28 527.56,477.41 527.96,477.62 528.57,477.83 528.97,477.97 529.58,478.18 529.98,478.32 530.38,478.52 530.99,478.66 531.59,478.87 532.00,479.01 532.60,479.22 533.00,479.36 533.61,479.56 534.01,479.70 534.61,479.91 535.02,480.05 535.62,480.26 536.03,480.47 536.43,480.60 537.03,480.81 537.64,480.95 538.04,481.16 538.65,481.37 539.05,481.51 539.65,481.71 540.06,481.85 540.46,482.06 541.06,482.27 541.67,482.41 542.07,482.55 542.68,482.62 543.08,482.75 543.68,482.89 544.09,483.03 544.69,483.17 545.09,483.31 545.70,483.45 546.10,483.59 546.50,483.73 547.11,483.80 547.71,483.93 548.12,484.07 548.72,484.21 549.12,484.42 549.73,484.56 550.13,484.70 550.53,484.84 551.14,485.04 551.74,485.18 552.15,485.32 552.75,485.46 553.15,485.67 553.76,485.81 554.16,485.95 554.77,486.08 555.17,486.22 555.77,486.43 556.18,486.57 556.58,486.71 557.18,486.85 557.79,486.99 558.19,487.12 558.80,487.26 559.20,487.40 559.80,487.54 560.21,487.68 560.61,487.82 561.21,488.03 561.82,488.16 562.22,488.30 562.83,488.37 563.23,488.51 563.83,488.65 564.24,488.72 564.84,488.86 565.24,488.93 565.85,489.07 566.25,489.20 566.66,489.27 567.26,489.41 ' style='stroke-width: 1.20; stroke: #009147; stroke-linecap: butt;' />
<text x='573.31' y='493.73' style='font-size: 16.00px; font-family: "Asap";' textLength='14.44px' lengthAdjust='spacingAndGlyphs'>IC</text>
<text x='587.74' y='496.67' style='font-size: 11.20px; font-family: "Asap";' textLength='5.98px' lengthAdjust='spacingAndGlyphs'>1</text>
<text x='573.31' y='438.25' style='font-size: 16.00px; font-family: "Asap";' textLength='14.44px' lengthAdjust='spacingAndGlyphs'>IC</text>
<text x='587.74' y='441.19' style='font-size: 11.20px; font-family: "Asap";' textLength='5.98px' lengthAdjust='spacingAndGlyphs'>2</text>
<polygon points='241.81,97.70 242.22,97.84 242.82,97.98 243.43,98.19 243.83,98.39 244.43,98.60 244.84,98.81 245.44,99.02 245.84,99.23 246.45,99.43 246.85,99.64 247.46,99.85 247.86,100.06 248.26,100.27 248.87,100.47 249.47,100.68 249.87,100.89 250.28,101.10 250.88,101.31 251.49,101.52 251.89,101.72 252.49,101.93 252.90,102.14 253.50,102.35 253.90,102.56 254.51,102.76 254.91,102.97 255.32,103.18 255.92,103.39 256.52,103.60 256.93,103.80 257.53,104.01 257.93,104.22 258.34,104.43 258.94,104.64 259.55,104.91 259.95,105.12 260.35,105.33 260.96,105.54 261.56,105.75 261.97,105.95 262.57,106.16 262.97,106.37 263.58,106.58 263.98,106.79 264.58,106.99 264.99,107.20 265.39,107.41 266.00,107.62 266.60,107.83 267.00,108.03 267.61,108.31 268.01,108.52 268.41,108.73 269.02,108.94 269.62,109.14 270.03,109.35 270.43,109.56 271.03,109.77 271.64,109.98 272.04,110.18 272.65,110.39 273.05,110.60 273.65,110.88 274.06,111.09 274.66,111.29 275.06,111.50 275.47,111.78 276.07,111.99 276.68,112.20 277.08,112.47 277.68,112.68 278.09,112.89 278.49,113.10 279.09,113.37 279.70,113.58 280.10,113.79 280.71,114.07 281.11,114.28 281.71,114.48 282.12,114.76 282.72,114.97 283.12,115.18 283.73,115.39 284.13,115.66 284.74,115.87 285.14,116.08 285.74,116.36 286.15,116.56 286.75,116.77 287.15,116.98 287.76,117.19 288.16,117.47 288.57,117.67 289.17,117.88 289.77,118.09 290.18,118.30 290.78,118.58 291.18,118.78 291.79,118.99 292.19,119.20 292.80,119.41 293.20,119.69 293.80,119.89 294.21,120.10 294.81,120.31 295.22,120.52 295.82,120.80 296.22,121.00 296.83,121.21 297.23,121.42 297.83,121.63 298.24,121.84 298.64,122.11 299.25,122.32 299.85,122.53 300.25,122.74 300.86,122.95 301.26,123.22 301.87,123.50 302.27,123.78 302.87,124.06 303.28,124.40 303.88,124.68 304.28,125.03 304.89,125.30 305.29,125.58 305.90,125.93 306.30,126.21 306.90,126.55 307.31,126.83 307.91,127.11 308.31,127.45 308.72,127.73 309.32,128.08 309.93,128.36 310.33,128.63 310.93,128.98 311.34,129.26 311.94,129.60 312.34,129.88 312.95,130.16 313.35,130.51 313.96,130.78 314.36,131.13 314.96,131.41 315.37,131.68 315.97,132.03 316.37,132.31 316.98,132.66 317.38,132.93 317.99,133.21 318.39,133.56 318.79,133.83 319.40,134.11 320.00,134.39 320.40,134.67 321.01,134.94 321.41,135.29 322.02,135.57 322.42,135.85 323.02,136.12 323.43,136.40 324.03,136.68 324.43,136.96 325.04,137.23 325.44,137.58 326.05,137.86 326.45,138.13 327.05,138.41 327.46,138.69 328.06,138.97 328.47,139.24 328.87,139.59 329.47,139.87 330.08,140.15 330.48,140.42 331.08,140.70 331.49,140.98 332.09,141.26 332.50,141.60 333.10,141.88 333.50,142.16 334.11,142.43 334.51,142.71 335.12,142.99 335.52,143.34 336.12,143.61 336.53,143.89 337.13,144.24 337.53,144.51 338.14,144.79 338.54,145.14 338.94,145.42 339.55,145.69 340.15,146.04 340.56,146.32 341.16,146.60 341.56,146.94 342.17,147.22 342.57,147.50 343.18,147.84 343.58,148.12 344.18,148.47 344.59,148.75 345.19,149.02 345.59,149.37 346.20,149.65 346.60,149.92 347.21,150.27 347.61,150.55 348.21,150.83 348.62,151.17 349.02,151.45 349.62,151.73 350.23,152.07 350.63,152.35 351.24,152.63 351.64,152.98 352.24,153.25 352.65,153.53 353.25,153.88 353.65,154.15 354.26,154.50 354.66,154.78 355.27,155.13 355.67,155.40 356.27,155.75 356.68,156.03 357.28,156.37 357.68,156.65 358.29,157.00 358.69,157.28 359.10,157.55 359.70,157.90 360.30,158.18 360.71,158.52 361.31,158.80 361.72,159.15 362.32,159.43 362.72,159.77 363.33,160.05 363.73,160.40 364.33,160.67 364.74,161.02 365.34,161.30 365.75,161.65 366.35,161.92 366.75,162.27 367.36,162.55 367.76,162.89 368.36,163.17 368.77,163.45 369.17,163.80 369.78,164.07 370.38,164.42 370.78,164.70 371.39,165.04 371.79,165.32 372.40,165.67 372.80,165.95 373.40,166.29 373.81,166.57 374.41,166.99 374.81,167.40 375.42,167.82 375.82,168.30 376.43,168.72 376.83,169.14 377.43,169.55 377.84,169.97 378.44,170.38 378.84,170.80 379.25,171.22 379.85,171.63 380.46,172.05 380.86,172.46 381.46,172.88 381.87,173.30 382.47,173.71 382.87,174.13 383.48,174.55 383.88,174.96 384.49,175.38 384.89,175.79 385.49,176.21 385.90,176.63 386.50,177.04 386.90,177.46 387.51,177.87 387.91,178.29 388.52,178.71 388.92,179.12 389.32,179.54 389.93,179.95 390.53,180.37 390.93,180.79 391.54,181.20 391.94,181.62 392.55,182.04 392.95,182.45 393.55,182.87 393.96,183.28 394.56,183.70 394.96,184.12 395.57,184.53 395.97,184.95 396.58,185.36 396.98,185.78 397.58,186.20 397.99,186.61 398.59,187.03 399.00,187.51 399.40,187.93 400.00,188.35 400.61,188.76 401.01,189.18 401.61,189.59 402.02,190.01 402.62,190.43 403.03,190.84 403.63,191.26 404.03,191.74 404.64,192.16 405.04,192.58 405.65,192.99 406.05,193.41 406.65,193.83 407.06,194.24 407.66,194.66 408.06,195.07 408.67,195.49 409.07,195.98 409.47,196.39 410.08,196.81 410.68,197.22 411.09,197.64 411.69,198.06 412.09,198.47 412.70,198.89 413.10,199.30 413.50,199.72 414.11,200.21 414.71,200.62 415.12,201.04 415.52,201.45 416.12,201.87 416.73,202.29 417.13,202.70 417.74,203.12 418.14,203.60 418.74,204.16 419.15,204.64 419.55,205.13 420.15,205.62 420.76,206.17 421.16,206.66 421.77,207.14 422.17,207.63 422.77,208.18 423.18,208.67 423.58,209.15 424.18,209.64 424.79,210.19 425.19,210.68 425.60,211.16 426.20,211.65 426.80,212.20 427.21,212.69 427.81,213.18 428.21,213.66 428.82,214.22 429.22,214.70 429.63,215.19 430.23,215.67 430.83,216.23 431.24,216.71 431.84,217.20 432.25,217.68 432.85,218.24 433.25,218.72 433.66,219.21 434.26,219.69 434.86,220.25 435.27,220.73 435.67,221.22 436.28,221.71 436.88,222.26 437.28,222.82 437.89,223.30 438.29,223.86 438.90,224.41 439.30,224.97 439.70,225.45 440.31,226.01 440.91,226.56 441.31,227.12 441.92,227.60 442.32,228.16 442.93,228.71 443.33,229.27 443.73,229.75 444.34,230.31 444.94,230.86 445.34,231.42 445.75,231.90 446.35,232.46 446.96,233.01 447.36,233.57 447.96,234.05 448.37,234.61 448.97,235.16 449.37,235.72 449.78,236.20 450.38,236.76 450.99,237.31 451.39,237.87 451.99,238.35 452.40,238.91 453.00,239.46 453.40,240.02 453.81,240.57 454.41,241.26 455.02,241.96 455.42,242.65 455.82,243.34 456.43,244.04 457.03,244.73 457.43,245.42 458.04,246.12 458.44,246.81 459.05,247.51 459.45,248.20 459.85,248.96 460.46,249.66 461.06,250.35 461.46,251.04 462.07,251.74 462.47,252.43 463.08,253.12 463.48,253.82 463.88,254.51 464.49,255.20 465.09,255.90 465.50,256.59 465.90,257.28 466.50,258.05 467.11,258.74 467.51,259.43 468.11,260.13 468.52,260.82 469.12,261.52 469.53,262.21 469.93,262.90 470.53,263.60 471.14,264.29 471.54,264.98 472.15,265.68 472.55,266.37 473.15,267.06 473.56,267.83 474.16,268.52 474.56,269.21 475.17,269.91 475.57,270.60 475.97,271.29 476.58,271.99 477.18,272.68 477.59,273.37 478.19,274.07 478.59,274.76 479.20,275.52 479.60,276.29 480.00,277.05 480.61,277.74 481.21,278.51 481.62,279.27 482.22,280.03 482.62,280.73 483.23,281.49 483.63,282.25 484.24,283.01 484.64,283.78 485.24,284.47 485.65,285.23 486.05,286.00 486.65,286.76 487.26,287.45 487.66,288.22 488.27,288.98 488.67,289.74 489.27,290.44 489.68,291.20 490.08,291.96 490.68,292.72 491.29,293.42 491.69,294.18 492.30,294.94 492.70,295.71 493.30,296.40 493.71,297.16 494.31,297.93 494.71,298.69 495.32,299.38 495.72,300.15 496.13,300.91 496.73,301.67 497.33,302.43 497.74,303.13 498.34,303.89 498.75,304.72 499.35,305.62 499.75,306.53 500.16,307.43 500.76,308.26 501.36,309.16 501.77,310.06 502.37,310.96 502.78,311.87 503.38,312.70 503.78,313.60 504.39,314.50 504.79,315.40 505.40,316.30 505.80,317.14 506.20,318.04 506.81,318.94 507.41,319.84 507.81,320.74 508.42,321.58 508.82,322.48 509.43,323.38 509.83,324.28 510.23,325.18 510.84,326.01 511.44,326.92 511.84,327.82 512.45,328.72 512.85,329.62 513.46,330.45 513.86,331.35 514.46,332.26 514.87,333.16 515.47,334.06 515.87,334.89 516.28,335.79 516.88,336.90 517.49,338.01 517.89,339.12 518.49,340.23 518.90,341.34 519.50,342.45 519.90,343.56 520.31,344.67 520.91,345.85 521.52,346.96 521.92,348.07 522.52,349.18 522.93,350.29 523.53,351.40 523.93,352.51 524.54,353.62 524.94,354.73 525.55,355.91 525.95,357.02 526.35,358.13 526.96,359.24 527.56,360.34 527.96,361.45 528.57,362.56 528.97,363.67 529.58,364.78 529.98,365.89 530.38,367.07 530.99,368.18 531.59,369.29 532.00,370.40 532.60,371.51 533.00,372.76 533.61,374.15 534.01,375.60 534.61,376.99 535.02,378.38 535.62,379.76 536.03,381.22 536.43,382.61 537.03,383.99 537.64,385.38 538.04,386.77 538.65,388.23 539.05,389.61 539.65,391.00 540.06,392.39 540.46,393.77 541.06,395.23 541.67,396.62 542.07,398.00 542.68,399.39 543.08,400.85 543.68,402.23 544.09,403.62 544.69,405.22 545.09,406.95 545.70,408.62 546.10,410.28 546.50,411.94 547.11,413.61 547.71,415.27 548.12,417.01 548.72,418.67 549.12,420.34 549.73,422.00 550.13,423.67 550.53,425.33 551.14,426.99 551.74,428.73 552.15,430.39 552.75,432.06 552.75,433.03 552.15,432.96 551.74,432.82 551.14,432.75 550.53,432.61 550.13,432.47 549.73,432.33 549.12,432.20 548.72,432.06 548.12,431.92 547.71,431.78 547.11,431.64 546.50,431.50 546.10,431.36 545.70,431.22 545.09,431.09 544.69,430.95 544.09,430.81 543.68,430.67 543.08,430.53 542.68,430.32 542.07,430.18 541.67,430.05 541.06,429.91 540.46,429.77 540.06,429.63 539.65,429.49 539.05,429.35 538.65,429.14 538.04,429.01 537.64,428.87 537.03,428.73 536.43,428.59 536.03,428.45 535.62,428.31 535.02,428.10 534.61,427.97 534.01,427.83 533.61,427.69 533.00,427.55 532.60,427.41 532.00,427.20 531.59,427.06 530.99,426.92 530.38,426.79 529.98,426.65 529.58,426.44 528.97,426.30 528.57,426.16 527.96,426.02 527.56,425.88 526.96,425.75 526.35,425.61 525.95,425.47 525.55,425.33 524.94,425.19 524.54,425.05 523.93,424.91 523.53,424.77 522.93,424.64 522.52,424.50 521.92,424.36 521.52,424.22 520.91,424.08 520.31,423.87 519.90,423.67 519.50,423.46 518.90,423.25 518.49,423.04 517.89,422.83 517.49,422.62 516.88,422.42 516.28,422.21 515.87,422.00 515.47,421.79 514.87,421.65 514.46,421.45 513.86,421.24 513.46,421.03 512.85,420.82 512.45,420.61 511.84,420.47 511.44,420.27 510.84,420.13 510.23,419.99 509.83,419.78 509.43,419.64 508.82,419.50 508.42,419.30 507.81,419.16 507.41,419.02 506.81,418.88 506.20,418.67 505.80,418.53 505.40,418.39 504.79,418.19 504.39,417.91 503.78,417.70 503.38,417.49 502.78,417.22 502.37,417.01 501.77,416.80 501.36,416.52 500.76,416.31 500.16,416.11 499.75,415.83 499.35,415.62 498.75,415.41 498.34,415.13 497.74,414.93 497.33,414.72 496.73,414.51 496.13,414.30 495.72,414.09 495.32,413.89 494.71,413.75 494.31,413.54 493.71,413.33 493.30,413.12 492.70,412.92 492.30,412.71 491.69,412.50 491.29,412.29 490.68,412.08 490.08,411.87 489.68,411.67 489.27,411.39 488.67,411.18 488.27,410.97 487.66,410.70 487.26,410.49 486.65,410.21 486.05,410.00 485.65,409.72 485.24,409.52 484.64,409.24 484.24,409.03 483.63,408.75 483.23,408.55 482.62,408.27 482.22,408.06 481.62,407.78 481.21,407.51 480.61,407.30 480.00,407.02 479.60,406.81 479.20,406.53 478.59,406.26 478.19,406.05 477.59,405.77 477.18,405.49 476.58,405.29 475.97,405.01 475.57,404.80 475.17,404.52 474.56,404.32 474.16,404.11 473.56,403.83 473.15,403.62 472.55,403.41 472.15,403.14 471.54,402.93 471.14,402.72 470.53,402.44 469.93,402.23 469.53,402.03 469.12,401.75 468.52,401.54 468.11,401.26 467.51,400.99 467.11,400.71 466.50,400.43 465.90,400.08 465.50,399.81 465.09,399.53 464.49,399.25 463.88,398.91 463.48,398.63 463.08,398.35 462.47,398.07 462.07,397.80 461.46,397.45 461.06,397.17 460.46,396.89 459.85,396.62 459.45,396.34 459.05,395.99 458.44,395.72 458.04,395.37 457.43,395.09 457.03,394.74 456.43,394.47 455.82,394.12 455.42,393.84 455.02,393.50 454.41,393.22 453.81,392.87 453.40,392.53 453.00,392.25 452.40,391.90 451.99,391.62 451.39,391.28 450.99,391.00 450.38,390.72 449.78,390.38 449.37,390.10 448.97,389.82 448.37,389.47 447.96,389.20 447.36,388.92 446.96,388.57 446.35,388.29 445.75,388.02 445.34,387.67 444.94,387.39 444.34,387.12 443.73,386.77 443.33,386.42 442.93,386.08 442.32,385.73 441.92,385.38 441.31,385.10 440.91,384.76 440.31,384.41 439.70,384.06 439.30,383.72 438.90,383.37 438.29,383.09 437.89,382.75 437.28,382.40 436.88,382.05 436.28,381.78 435.67,381.43 435.27,381.08 434.86,380.80 434.26,380.46 433.66,380.11 433.25,379.76 432.85,379.49 432.25,379.14 431.84,378.79 431.24,378.45 430.83,378.10 430.23,377.75 429.63,377.41 429.22,377.06 428.82,376.71 428.21,376.37 427.81,376.02 427.21,375.60 426.80,375.26 426.20,374.91 425.60,374.56 425.19,374.15 424.79,373.73 424.18,373.38 423.58,372.97 423.18,372.55 422.77,372.20 422.17,371.79 421.77,371.37 421.16,370.96 420.76,370.61 420.15,370.19 419.55,369.78 419.15,369.43 418.74,369.01 418.14,368.60 417.74,368.18 417.13,367.84 416.73,367.42 416.12,367.00 415.52,366.59 415.12,366.24 414.71,365.82 414.11,365.41 413.50,364.99 413.10,364.51 412.70,364.09 412.09,363.67 411.69,363.19 411.09,362.77 410.68,362.36 410.08,361.87 409.47,361.45 409.07,361.04 408.67,360.55 408.06,360.14 407.66,359.72 407.06,359.30 406.65,358.96 406.05,358.54 405.65,358.13 405.04,357.71 404.64,357.36 404.03,356.95 403.63,356.53 403.03,356.18 402.62,355.77 402.02,355.35 401.61,355.00 401.01,354.59 400.61,354.17 400.00,353.69 399.40,353.20 399.00,352.79 398.59,352.30 397.99,351.81 397.58,351.33 396.98,350.84 396.58,350.43 395.97,349.94 395.57,349.46 394.96,348.97 394.56,348.49 393.96,348.00 393.55,347.58 392.95,347.10 392.55,346.61 391.94,346.13 391.54,345.64 390.93,345.16 390.53,344.74 389.93,344.19 389.32,343.70 388.92,343.21 388.52,342.73 387.91,342.17 387.51,341.69 386.90,341.20 386.50,340.72 385.90,340.16 385.49,339.68 384.89,339.19 384.49,338.64 383.88,338.08 383.48,337.60 382.87,337.04 382.47,336.49 381.87,335.93 381.46,335.45 380.86,334.89 380.46,334.34 379.85,333.85 379.25,333.37 378.84,332.88 378.44,332.33 377.84,331.84 377.43,331.35 376.83,330.87 376.43,330.31 375.82,329.83 375.42,329.34 374.81,328.86 374.41,328.30 373.81,327.68 373.40,327.05 372.80,326.50 372.40,325.88 371.79,325.25 371.39,324.70 370.78,324.07 370.38,323.45 369.78,322.89 369.17,322.34 368.77,321.71 368.36,321.16 367.76,320.60 367.36,320.05 366.75,319.43 366.35,318.87 365.75,318.32 365.34,317.76 364.74,317.21 364.33,316.58 363.73,316.03 363.33,315.47 362.72,314.92 362.32,314.29 361.72,313.74 361.31,313.18 360.71,312.63 360.30,312.00 359.70,311.38 359.10,310.76 358.69,310.13 358.29,309.51 357.68,308.88 357.28,308.26 356.68,307.64 356.27,307.01 355.67,306.39 355.27,305.69 354.66,305.07 354.26,304.45 353.65,303.82 353.25,303.20 352.65,302.50 352.24,301.95 351.64,301.32 351.24,300.70 350.63,300.15 350.23,299.52 349.62,298.90 349.02,298.27 348.62,297.72 348.21,297.09 347.61,296.47 347.21,295.91 346.60,295.29 346.20,294.67 345.59,294.11 345.19,293.49 344.59,292.86 344.18,292.24 343.58,291.68 343.18,290.99 342.57,290.30 342.17,289.60 341.56,288.98 341.16,288.29 340.56,287.59 340.15,286.90 339.55,286.21 338.94,285.58 338.54,284.89 338.14,284.26 337.53,283.57 337.13,282.95 336.53,282.25 336.12,281.63 335.52,280.93 335.12,280.24 334.51,279.55 334.11,278.85 333.50,278.16 333.10,277.47 332.50,276.77 332.09,276.08 331.49,275.39 331.08,274.69 330.48,274.00 330.08,273.24 329.47,272.54 328.87,271.85 328.47,271.09 328.06,270.39 327.46,269.70 327.05,269.01 326.45,268.31 326.05,267.62 325.44,266.92 325.04,266.23 324.43,265.54 324.03,264.84 323.43,264.08 323.02,263.39 322.42,262.62 322.02,261.93 321.41,261.17 321.01,260.47 320.40,259.71 320.00,258.95 319.40,258.26 318.79,257.49 318.39,256.80 317.99,256.04 317.38,255.27 316.98,254.58 316.37,253.75 315.97,252.92 315.37,252.08 314.96,251.18 314.36,250.35 313.96,249.52 313.35,248.68 312.95,247.85 312.34,247.09 311.94,246.26 311.34,245.49 310.93,244.66 310.33,243.90 309.93,243.07 309.32,242.23 308.72,241.47 308.31,240.64 307.91,239.81 307.31,238.98 306.90,238.14 306.30,237.24 305.90,236.41 305.29,235.51 304.89,234.61 304.28,233.70 303.88,232.80 303.28,231.90 302.87,231.07 302.27,230.17 301.87,229.27 301.26,228.36 300.86,227.53 300.25,226.63 299.85,225.73 299.25,224.90 298.64,223.99 298.24,223.09 297.83,222.26 297.23,221.36 296.83,220.46 296.22,219.63 295.82,218.72 295.22,217.68 294.81,216.64 294.21,215.60 293.80,214.56 293.20,213.45 292.80,212.41 292.19,211.37 291.79,210.40 291.18,209.36 290.78,208.39 290.18,207.35 289.77,206.38 289.17,205.34 288.57,204.37 288.16,203.33 287.76,202.36 287.15,201.32 286.75,200.34 286.15,199.30 285.74,198.33 285.14,197.29 284.74,196.32 284.13,195.28 283.73,194.31 283.12,193.27 282.72,192.30 282.12,191.26 281.71,190.29 281.11,189.32 280.71,188.35 280.10,187.38 279.70,186.47 279.09,185.50 278.49,184.53 278.09,183.35 277.68,182.17 277.08,181.06 276.68,179.89 276.07,178.78 275.47,177.67 275.06,176.49 274.66,175.38 274.06,174.27 273.65,173.09 273.05,171.98 272.65,170.87 272.04,169.76 271.64,168.65 271.03,167.54 270.43,166.50 270.03,165.39 269.62,164.28 269.02,163.03 268.41,161.78 268.01,160.60 267.61,159.43 267.00,158.39 266.60,157.41 266.00,156.37 265.39,155.40 264.99,154.02 264.58,152.63 263.98,151.31 263.58,149.92 262.97,148.88 262.57,147.84 261.97,146.87 261.56,145.83 260.96,144.86 260.35,143.68 259.95,142.57 259.55,141.46 258.94,140.28 258.34,139.17 257.93,137.93 257.53,136.68 256.93,135.50 256.52,134.25 255.92,133.00 255.32,131.75 254.91,130.51 254.51,129.19 253.90,127.94 253.50,126.62 252.90,125.30 252.49,124.12 251.89,123.01 251.49,121.84 250.88,120.73 250.28,119.62 249.87,118.51 249.47,117.26 248.87,116.01 248.26,114.76 247.86,113.51 247.46,112.26 246.85,111.09 246.45,109.77 245.84,108.38 245.44,106.92 244.84,105.54 244.43,104.29 243.83,103.04 243.43,101.86 242.82,100.68 242.22,99.43 241.81,98.26 ' style='stroke-width: 0.00; stroke: none; stroke-linecap: butt; fill: #3A53A4; fill-opacity: 0.30;' />
<polyline points='241.81,97.70 242.22,97.84 242.82,97.98 243.43,98.19 243.83,98.39 244.43,98.60 244.84,98.81 245.44,99.02 245.84,99.23 246.45,99.43 246.85,99.64 247.46,99.85 247.86,100.06 248.26,100.27 248.87,100.47 249.47,100.68 249.87,100.89 250.28,101.10 250.88,101.31 251.49,101.52 251.89,101.72 252.49,101.93 252.90,102.14 253.50,102.35 253.90,102.56 254.51,102.76 254.91,102.97 255.32,103.18 255.92,103.39 256.52,103.60 256.93,103.80 257.53,104.01 257.93,104.22 258.34,104.43 258.94,104.64 259.55,104.91 259.95,105.12 260.35,105.33 260.96,105.54 261.56,105.75 261.97,105.95 262.57,106.16 262.97,106.37 263.58,106.58 263.98,106.79 264.58,106.99 264.99,107.20 265.39,107.41 266.00,107.62 266.60,107.83 267.00,108.03 267.61,108.31 268.01,108.52 268.41,108.73 269.02,108.94 269.62,109.14 270.03,109.35 270.43,109.56 271.03,109.77 271.64,109.98 272.04,110.18 272.65,110.39 273.05,110.60 273.65,110.88 274.06,111.09 274.66,111.29 275.06,111.50 275.47,111.78 276.07,111.99 276.68,112.20 277.08,112.47 277.68,112.68 278.09,112.89 278.49,113.10 279.09,113.37 279.70,113.58 280.10,113.79 280.71,114.07 281.11,114.28 281.71,114.48 282.12,114.76 282.72,114.97 283.12,115.18 283.73,115.39 284.13,115.66 284.74,115.87 285.14,116.08 285.74,116.36 286.15,116.56 286.75,116.77 287.15,116.98 287.76,117.19 288.16,117.47 288.57,117.67 289.17,117.88 289.77,118.09 290.18,118.30 290.78,118.58 291.18,118.78 291.79,118.99 292.19,119.20 292.80,119.41 293.20,119.69 293.80,119.89 294.21,120.10 294.81,120.31 295.22,120.52 295.82,120.80 296.22,121.00 296.83,121.21 297.23,121.42 297.83,121.63 298.24,121.84 298.64,122.11 299.25,122.32 299.85,122.53 300.25,122.74 300.86,122.95 301.26,123.22 301.87,123.50 302.27,123.78 302.87,124.06 303.28,124.40 303.88,124.68 304.28,125.03 304.89,125.30 305.29,125.58 305.90,125.93 306.30,126.21 306.90,126.55 307.31,126.83 307.91,127.11 308.31,127.45 308.72,127.73 309.32,128.08 309.93,128.36 310.33,128.63 310.93,128.98 311.34,129.26 311.94,129.60 312.34,129.88 312.95,130.16 313.35,130.51 313.96,130.78 314.36,131.13 314.96,131.41 315.37,131.68 315.97,132.03 316.37,132.31 316.98,132.66 317.38,132.93 317.99,133.21 318.39,133.56 318.79,133.83 319.40,134.11 320.00,134.39 320.40,134.67 321.01,134.94 321.41,135.29 322.02,135.57 322.42,135.85 323.02,136.12 323.43,136.40 324.03,136.68 324.43,136.96 325.04,137.23 325.44,137.58 326.05,137.86 326.45,138.13 327.05,138.41 327.46,138.69 328.06,138.97 328.47,139.24 328.87,139.59 329.47,139.87 330.08,140.15 330.48,140.42 331.08,140.70 331.49,140.98 332.09,141.26 332.50,141.60 333.10,141.88 333.50,142.16 334.11,142.43 334.51,142.71 335.12,142.99 335.52,143.34 336.12,143.61 336.53,143.89 337.13,144.24 337.53,144.51 338.14,144.79 338.54,145.14 338.94,145.42 339.55,145.69 340.15,146.04 340.56,146.32 341.16,146.60 341.56,146.94 342.17,147.22 342.57,147.50 343.18,147.84 343.58,148.12 344.18,148.47 344.59,148.75 345.19,149.02 345.59,149.37 346.20,149.65 346.60,149.92 347.21,150.27 347.61,150.55 348.21,150.83 348.62,151.17 349.02,151.45 349.62,151.73 350.23,152.07 350.63,152.35 351.24,152.63 351.64,152.98 352.24,153.25 352.65,153.53 353.25,153.88 353.65,154.15 354.26,154.50 354.66,154.78 355.27,155.13 355.67,155.40 356.27,155.75 356.68,156.03 357.28,156.37 357.68,156.65 358.29,157.00 358.69,157.28 359.10,157.55 359.70,157.90 360.30,158.18 360.71,158.52 361.31,158.80 361.72,159.15 362.32,159.43 362.72,159.77 363.33,160.05 363.73,160.40 364.33,160.67 364.74,161.02 365.34,161.30 365.75,161.65 366.35,161.92 366.75,162.27 367.36,162.55 367.76,162.89 368.36,163.17 368.77,163.45 369.17,163.80 369.78,164.07 370.38,164.42 370.78,164.70 371.39,165.04 371.79,165.32 372.40,165.67 372.80,165.95 373.40,166.29 373.81,166.57 374.41,166.99 374.81,167.40 375.42,167.82 375.82,168.30 376.43,168.72 376.83,169.14 377.43,169.55 377.84,169.97 378.44,170.38 378.84,170.80 379.25,171.22 379.85,171.63 380.46,172.05 380.86,172.46 381.46,172.88 381.87,173.30 382.47,173.71 382.87,174.13 383.48,174.55 383.88,174.96 384.49,175.38 384.89,175.79 385.49,176.21 385.90,176.63 386.50,177.04 386.90,177.46 387.51,177.87 387.91,178.29 388.52,178.71 388.92,179.12 389.32,179.54 389.93,179.95 390.53,180.37 390.93,180.79 391.54,181.20 391.94,181.62 392.55,182.04 392.95,182.45 393.55,182.87 393.96,183.28 394.56,183.70 394.96,184.12 395.57,184.53 395.97,184.95 396.58,185.36 396.98,185.78 397.58,186.20 397.99,186.61 398.59,187.03 399.00,187.51 399.40,187.93 400.00,188.35 400.61,188.76 401.01,189.18 401.61,189.59 402.02,190.01 402.62,190.43 403.03,190.84 403.63,191.26 404.03,191.74 404.64,192.16 405.04,192.58 405.65,192.99 406.05,193.41 406.65,193.83 407.06,194.24 407.66,194.66 408.06,195.07 408.67,195.49 409.07,195.98 409.47,196.39 410.08,196.81 410.68,197.22 411.09,197.64 411.69,198.06 412.09,198.47 412.70,198.89 413.10,199.30 413.50,199.72 414.11,200.21 414.71,200.62 415.12,201.04 415.52,201.45 416.12,201.87 416.73,202.29 417.13,202.70 417.74,203.12 418.14,203.60 418.74,204.16 419.15,204.64 419.55,205.13 420.15,205.62 420.76,206.17 421.16,206.66 421.77,207.14 422.17,207.63 422.77,208.18 423.18,208.67 423.58,209.15 424.18,209.64 424.79,210.19 425.19,210.68 425.60,211.16 426.20,211.65 426.80,212.20 427.21,212.69 427.81,213.18 428.21,213.66 428.82,214.22 429.22,214.70 429.63,215.19 430.23,215.67 430.83,216.23 431.24,216.71 431.84,217.20 432.25,217.68 432.85,218.24 433.25,218.72 433.66,219.21 434.26,219.69 434.86,220.25 435.27,220.73 435.67,221.22 436.28,221.71 436.88,222.26 437.28,222.82 437.89,223.30 438.29,223.86 438.90,224.41 439.30,224.97 439.70,225.45 440.31,226.01 440.91,226.56 441.31,227.12 441.92,227.60 442.32,228.16 442.93,228.71 443.33,229.27 443.73,229.75 444.34,230.31 444.94,230.86 445.34,231.42 445.75,231.90 446.35,232.46 446.96,233.01 447.36,233.57 447.96,234.05 448.37,234.61 448.97,235.16 449.37,235.72 449.78,236.20 450.38,236.76 450.99,237.31 451.39,237.87 451.99,238.35 452.40,238.91 453.00,239.46 453.40,240.02 453.81,240.57 454.41,241.26 455.02,241.96 455.42,242.65 455.82,243.34 456.43,244.04 457.03,244.73 457.43,245.42 458.04,246.12 458.44,246.81 459.05,247.51 459.45,248.20 459.85,248.96 460.46,249.66 461.06,250.35 461.46,251.04 462.07,251.74 462.47,252.43 463.08,253.12 463.48,253.82 463.88,254.51 464.49,255.20 465.09,255.90 465.50,256.59 465.90,257.28 466.50,258.05 467.11,258.74 467.51,259.43 468.11,260.13 468.52,260.82 469.12,261.52 469.53,262.21 469.93,262.90 470.53,263.60 471.14,264.29 471.54,264.98 472.15,265.68 472.55,266.37 473.15,267.06 473.56,267.83 474.16,268.52 474.56,269.21 475.17,269.91 475.57,270.60 475.97,271.29 476.58,271.99 477.18,272.68 477.59,273.37 478.19,274.07 478.59,274.76 479.20,275.52 479.60,276.29 480.00,277.05 480.61,277.74 481.21,278.51 481.62,279.27 482.22,280.03 482.62,280.73 483.23,281.49 483.63,282.25 484.24,283.01 484.64,283.78 485.24,284.47 485.65,285.23 486.05,286.00 486.65,286.76 487.26,287.45 487.66,288.22 488.27,288.98 488.67,289.74 489.27,290.44 489.68,291.20 490.08,291.96 490.68,292.72 491.29,293.42 491.69,294.18 492.30,294.94 492.70,295.71 493.30,296.40 493.71,297.16 494.31,297.93 494.71,298.69 495.32,299.38 495.72,300.15 496.13,300.91 496.73,301.67 497.33,302.43 497.74,303.13 498.34,303.89 498.75,304.72 499.35,305.62 499.75,306.53 500.16,307.43 500.76,308.26 501.36,309.16 501.77,310.06 502.37,310.96 502.78,311.87 503.38,312.70 503.78,313.60 504.39,314.50 504.79,315.40 505.40,316.30 505.80,317.14 506.20,318.04 506.81,318.94 507.41,319.84 507.81,320.74 508.42,321.58 508.82,322.48 509.43,323.38 509.83,324.28 510.23,325.18 510.84,326.01 511.44,326.92 511.84,327.82 512.45,328.72 512.85,329.62 513.46,330.45 513.86,331.35 514.46,332.26 514.87,333.16 515.47,334.06 515.87,334.89 516.28,335.79 516.88,336.90 517.49,338.01 517.89,339.12 518.49,340.23 518.90,341.34 519.50,342.45 519.90,343.56 520.31,344.67 520.91,345.85 521.52,346.96 521.92,348.07 522.52,349.18 522.93,350.29 523.53,351.40 523.93,352.51 524.54,353.62 524.94,354.73 525.55,355.91 525.95,357.02 526.35,358.13 526.96,359.24 527.56,360.34 527.96,361.45 528.57,362.56 528.97,363.67 529.58,364.78 529.98,365.89 530.38,367.07 530.99,368.18 531.59,369.29 532.00,370.40 532.60,371.51 533.00,372.76 533.61,374.15 534.01,375.60 534.61,376.99 535.02,378.38 535.62,379.76 536.03,381.22 536.43,382.61 537.03,383.99 537.64,385.38 538.04,386.77 538.65,388.23 539.05,389.61 539.65,391.00 540.06,392.39 540.46,393.77 541.06,395.23 541.67,396.62 542.07,398.00 542.68,399.39 543.08,400.85 543.68,402.23 544.09,403.62 544.69,405.22 545.09,406.95 545.70,408.62 546.10,410.28 546.50,411.94 547.11,413.61 547.71,415.27 548.12,417.01 548.72,418.67 549.12,420.34 549.73,422.00 550.13,423.67 550.53,425.33 551.14,426.99 551.74,428.73 552.15,430.39 552.75,432.06 ' style='stroke-width: 1.07; stroke: none; stroke-linecap: butt;' />
<polyline points='552.75,433.03 552.15,432.96 551.74,432.82 551.14,432.75 550.53,432.61 550.13,432.47 549.73,432.33 549.12,432.20 548.72,432.06 548.12,431.92 547.71,431.78 547.11,431.64 546.50,431.50 546.10,431.36 545.70,431.22 545.09,431.09 544.69,430.95 544.09,430.81 543.68,430.67 543.08,430.53 542.68,430.32 542.07,430.18 541.67,430.05 541.06,429.91 540.46,429.77 540.06,429.63 539.65,429.49 539.05,429.35 538.65,429.14 538.04,429.01 537.64,428.87 537.03,428.73 536.43,428.59 536.03,428.45 535.62,428.31 535.02,428.10 534.61,427.97 534.01,427.83 533.61,427.69 533.00,427.55 532.60,427.41 532.00,427.20 531.59,427.06 530.99,426.92 530.38,426.79 529.98,426.65 529.58,426.44 528.97,426.30 528.57,426.16 527.96,426.02 527.56,425.88 526.96,425.75 526.35,425.61 525.95,425.47 525.55,425.33 524.94,425.19 524.54,425.05 523.93,424.91 523.53,424.77 522.93,424.64 522.52,424.50 521.92,424.36 521.52,424.22 520.91,424.08 520.31,423.87 519.90,423.67 519.50,423.46 518.90,423.25 518.49,423.04 517.89,422.83 517.49,422.62 516.88,422.42 516.28,422.21 515.87,422.00 515.47,421.79 514.87,421.65 514.46,421.45 513.86,421.24 513.46,421.03 512.85,420.82 512.45,420.61 511.84,420.47 511.44,420.27 510.84,420.13 510.23,419.99 509.83,419.78 509.43,419.64 508.82,419.50 508.42,419.30 507.81,419.16 507.41,419.02 506.81,418.88 506.20,418.67 505.80,418.53 505.40,418.39 504.79,418.19 504.39,417.91 503.78,417.70 503.38,417.49 502.78,417.22 502.37,417.01 501.77,416.80 501.36,416.52 500.76,416.31 500.16,416.11 499.75,415.83 499.35,415.62 498.75,415.41 498.34,415.13 497.74,414.93 497.33,414.72 496.73,414.51 496.13,414.30 495.72,414.09 495.32,413.89 494.71,413.75 494.31,413.54 493.71,413.33 493.30,413.12 492.70,412.92 492.30,412.71 491.69,412.50 491.29,412.29 490.68,412.08 490.08,411.87 489.68,411.67 489.27,411.39 488.67,411.18 488.27,410.97 487.66,410.70 487.26,410.49 486.65,410.21 486.05,410.00 485.65,409.72 485.24,409.52 484.64,409.24 484.24,409.03 483.63,408.75 483.23,408.55 482.62,408.27 482.22,408.06 481.62,407.78 481.21,407.51 480.61,407.30 480.00,407.02 479.60,406.81 479.20,406.53 478.59,406.26 478.19,406.05 477.59,405.77 477.18,405.49 476.58,405.29 475.97,405.01 475.57,404.80 475.17,404.52 474.56,404.32 474.16,404.11 473.56,403.83 473.15,403.62 472.55,403.41 472.15,403.14 471.54,402.93 471.14,402.72 470.53,402.44 469.93,402.23 469.53,402.03 469.12,401.75 468.52,401.54 468.11,401.26 467.51,400.99 467.11,400.71 466.50,400.43 465.90,400.08 465.50,399.81 465.09,399.53 464.49,399.25 463.88,398.91 463.48,398.63 463.08,398.35 462.47,398.07 462.07,397.80 461.46,397.45 461.06,397.17 460.46,396.89 459.85,396.62 459.45,396.34 459.05,395.99 458.44,395.72 458.04,395.37 457.43,395.09 457.03,394.74 456.43,394.47 455.82,394.12 455.42,393.84 455.02,393.50 454.41,393.22 453.81,392.87 453.40,392.53 453.00,392.25 452.40,391.90 451.99,391.62 451.39,391.28 450.99,391.00 450.38,390.72 449.78,390.38 449.37,390.10 448.97,389.82 448.37,389.47 447.96,389.20 447.36,388.92 446.96,388.57 446.35,388.29 445.75,388.02 445.34,387.67 444.94,387.39 444.34,387.12 443.73,386.77 443.33,386.42 442.93,386.08 442.32,385.73 441.92,385.38 441.31,385.10 440.91,384.76 440.31,384.41 439.70,384.06 439.30,383.72 438.90,383.37 438.29,383.09 437.89,382.75 437.28,382.40 436.88,382.05 436.28,381.78 435.67,381.43 435.27,381.08 434.86,380.80 434.26,380.46 433.66,380.11 433.25,379.76 432.85,379.49 432.25,379.14 431.84,378.79 431.24,378.45 430.83,378.10 430.23,377.75 429.63,377.41 429.22,377.06 428.82,376.71 428.21,376.37 427.81,376.02 427.21,375.60 426.80,375.26 426.20,374.91 425.60,374.56 425.19,374.15 424.79,373.73 424.18,373.38 423.58,372.97 423.18,372.55 422.77,372.20 422.17,371.79 421.77,371.37 421.16,370.96 420.76,370.61 420.15,370.19 419.55,369.78 419.15,369.43 418.74,369.01 418.14,368.60 417.74,368.18 417.13,367.84 416.73,367.42 416.12,367.00 415.52,366.59 415.12,366.24 414.71,365.82 414.11,365.41 413.50,364.99 413.10,364.51 412.70,364.09 412.09,363.67 411.69,363.19 411.09,362.77 410.68,362.36 410.08,361.87 409.47,361.45 409.07,361.04 408.67,360.55 408.06,360.14 407.66,359.72 407.06,359.30 406.65,358.96 406.05,358.54 405.65,358.13 405.04,357.71 404.64,357.36 404.03,356.95 403.63,356.53 403.03,356.18 402.62,355.77 402.02,355.35 401.61,355.00 401.01,354.59 400.61,354.17 400.00,353.69 399.40,353.20 399.00,352.79 398.59,352.30 397.99,351.81 397.58,351.33 396.98,350.84 396.58,350.43 395.97,349.94 395.57,349.46 394.96,348.97 394.56,348.49 393.96,348.00 393.55,347.58 392.95,347.10 392.55,346.61 391.94,346.13 391.54,345.64 390.93,345.16 390.53,344.74 389.93,344.19 389.32,343.70 388.92,343.21 388.52,342.73 387.91,342.17 387.51,341.69 386.90,341.20 386.50,340.72 385.90,340.16 385.49,339.68 384.89,339.19 384.49,338.64 383.88,338.08 383.48,337.60 382.87,337.04 382.47,336.49 381.87,335.93 381.46,335.45 380.86,334.89 380.46,334.34 379.85,333.85 379.25,333.37 378.84,332.88 378.44,332.33 377.84,331.84 377.43,331.35 376.83,330.87 376.43,330.31 375.82,329.83 375.42,329.34 374.81,328.86 374.41,328.30 373.81,327.68 373.40,327.05 372.80,326.50 372.40,325.88 371.79,325.25 371.39,324.70 370.78,324.07 370.38,323.45 369.78,322.89 369.17,322.34 368.77,321.71 368.36,321.16 367.76,320.60 367.36,320.05 366.75,319.43 366.35,318.87 365.75,318.32 365.34,317.76 364.74,317.21 364.33,316.58 363.73,316.03 363.33,315.47 362.72,314.92 362.32,314.29 361.72,313.74 361.31,313.18 360.71,312.63 360.30,312.00 359.70,311.38 359.10,310.76 358.69,310.13 358.29,309.51 357.68,308.88 357.28,308.26 356.68,307.64 356.27,307.01 355.67,306.39 355.27,305.69 354.66,305.07 354.26,304.45 353.65,303.82 353.25,303.20 352.65,302.50 352.24,301.95 351.64,301.32 351.24,300.70 350.63,300.15 350.23,299.52 349.62,298.90 349.02,298.27 348.62,297.72 348.21,297.09 347.61,296.47 347.21,295.91 346.60,295.29 346.20,294.67 345.59,294.11 345.19,293.49 344.59,292.86 344.18,292.24 343.58,291.68 343.18,290.99 342.57,290.30 342.17,289.60 341.56,288.98 341.16,288.29 340.56,287.59 340.15,286.90 339.55,286.21 338.94,285.58 338.54,284.89 338.14,284.26 337.53,283.57 337.13,282.95 336.53,282.25 336.12,281.63 335.52,280.93 335.12,280.24 334.51,279.55 334.11,278.85 333.50,278.16 333.10,277.47 332.50,276.77 332.09,276.08 331.49,275.39 331.08,274.69 330.48,274.00 330.08,273.24 329.47,272.54 328.87,271.85 328.47,271.09 328.06,270.39 327.46,269.70 327.05,269.01 326.45,268.31 326.05,267.62 325.44,266.92 325.04,266.23 324.43,265.54 324.03,264.84 323.43,264.08 323.02,263.39 322.42,262.62 322.02,261.93 321.41,261.17 321.01,260.47 320.40,259.71 320.00,258.95 319.40,258.26 318.79,257.49 318.39,256.80 317.99,256.04 317.38,255.27 316.98,254.58 316.37,253.75 315.97,252.92 315.37,252.08 314.96,251.18 314.36,250.35 313.96,249.52 313.35,248.68 312.95,247.85 312.34,247.09 311.94,246.26 311.34,245.49 310.93,244.66 310.33,243.90 309.93,243.07 309.32,242.23 308.72,241.47 308.31,240.64 307.91,239.81 307.31,238.98 306.90,238.14 306.30,237.24 305.90,236.41 305.29,235.51 304.89,234.61 304.28,233.70 303.88,232.80 303.28,231.90 302.87,231.07 302.27,230.17 301.87,229.27 301.26,228.36 300.86,227.53 300.25,226.63 299.85,225.73 299.25,224.90 298.64,223.99 298.24,223.09 297.83,222.26 297.23,221.36 296.83,220.46 296.22,219.63 295.82,218.72 295.22,217.68 294.81,216.64 294.21,215.60 293.80,214.56 293.20,213.45 292.80,212.41 292.19,211.37 291.79,210.40 291.18,209.36 290.78,208.39 290.18,207.35 289.77,206.38 289.17,205.34 288.57,204.37 288.16,203.33 287.76,202.36 287.15,201.32 286.75,200.34 286.15,199.30 285.74,198.33 285.14,197.29 284.74,196.32 284.13,195.28 283.73,194.31 283.12,193.27 282.72,192.30 282.12,191.26 281.71,190.29 281.11,189.32 280.71,188.35 280.10,187.38 279.70,186.47 279.09,185.50 278.49,184.53 278.09,183.35 277.68,182.17 277.08,181.06 276.68,179.89 276.07,178.78 275.47,177.67 275.06,176.49 274.66,175.38 274.06,174.27 273.65,173.09 273.05,171.98 272.65,170.87 272.04,169.76 271.64,168.65 271.03,167.54 270.43,166.50 270.03,165.39 269.62,164.28 269.02,163.03 268.41,161.78 268.01,160.60 267.61,159.43 267.00,158.39 266.60,157.41 266.00,156.37 265.39,155.40 264.99,154.02 264.58,152.63 263.98,151.31 263.58,149.92 262.97,148.88 262.57,147.84 261.97,146.87 261.56,145.83 260.96,144.86 260.35,143.68 259.95,142.57 259.55,141.46 258.94,140.28 258.34,139.17 257.93,137.93 257.53,136.68 256.93,135.50 256.52,134.25 255.92,133.00 255.32,131.75 254.91,130.51 254.51,129.19 253.90,127.94 253.50,126.62 252.90,125.30 252.49,124.12 251.89,123.01 251.49,121.84 250.88,120.73 250.28,119.62 249.87,118.51 249.47,117.26 248.87,116.01 248.26,114.76 247.86,113.51 247.46,112.26 246.85,111.09 246.45,109.77 245.84,108.38 245.44,106.92 244.84,105.54 244.43,104.29 243.83,103.04 243.43,101.86 242.82,100.68 242.22,99.43 241.81,98.26 ' style='stroke-width: 1.07; stroke: none; stroke-linecap: butt;' />
<text x='356.68' y='258.12' style='font-size: 12.00px; font-family: "DejaVu Sans";' textLength='71.09px' lengthAdjust='spacingAndGlyphs'>Feasible set</text>
<text x='457.43' y='223.64' style='font-size: 13.00px; font-family: "Asap";' textLength='94.10px' lengthAdjust='spacingAndGlyphs'>Feasible frontier</text>
<polyline points='84.63,513.83 84.63,28.35 ' style='stroke-width: 1.07; stroke-linecap: butt;' />
<text x='79.70' y='518.20' text-anchor='end' style='font-size: 12.00px; font-weight: bold; font-family: "Arimo";' textLength='8.35px' lengthAdjust='spacingAndGlyphs'>0</text>
<text x='79.70' y='448.85' text-anchor='end' style='font-size: 12.00px; font-weight: bold; font-family: "Arimo";' textLength='16.70px' lengthAdjust='spacingAndGlyphs'>10</text>
<text x='79.70' y='379.49' text-anchor='end' style='font-size: 12.00px; font-weight: bold; font-family: "Arimo";' textLength='16.70px' lengthAdjust='spacingAndGlyphs'>20</text>
<text x='79.70' y='310.14' text-anchor='end' style='font-size: 12.00px; font-weight: bold; font-family: "Arimo";' textLength='16.70px' lengthAdjust='spacingAndGlyphs'>30</text>
<text x='79.70' y='240.78' text-anchor='end' style='font-size: 12.00px; font-weight: bold; font-family: "Arimo";' textLength='16.70px' lengthAdjust='spacingAndGlyphs'>40</text>
<text x='79.70' y='171.43' text-anchor='end' style='font-size: 12.00px; font-weight: bold; font-family: "Arimo";' textLength='16.70px' lengthAdjust='spacingAndGlyphs'>50</text>
<text x='79.70' y='102.07' text-anchor='end' style='font-size: 12.00px; font-weight: bold; font-family: "Arimo";' textLength='16.70px' lengthAdjust='spacingAndGlyphs'>60</text>
<text x='79.70' y='32.72' text-anchor='end' style='font-size: 12.00px; font-weight: bold; font-family: "Arimo";' textLength='16.70px' lengthAdjust='spacingAndGlyphs'>70</text>
<polyline points='81.89,513.83 84.63,513.83 ' style='stroke-width: 1.07; stroke: #333333; stroke-linecap: butt;' />
<polyline points='81.89,479.15 84.63,479.15 ' style='stroke-width: 1.07; stroke: #333333; stroke-linecap: butt;' />
<polyline points='81.89,444.47 84.63,444.47 ' style='stroke-width: 1.07; stroke: #333333; stroke-linecap: butt;' />
<polyline points='81.89,409.79 84.63,409.79 ' style='stroke-width: 1.07; stroke: #333333; stroke-linecap: butt;' />
<polyline points='81.89,375.12 84.63,375.12 ' style='stroke-width: 1.07; stroke: #333333; stroke-linecap: butt;' />
<polyline points='81.89,340.44 84.63,340.44 ' style='stroke-width: 1.07; stroke: #333333; stroke-linecap: butt;' />
<polyline points='81.89,305.76 84.63,305.76 ' style='stroke-width: 1.07; stroke: #333333; stroke-linecap: butt;' />
<polyline points='81.89,271.09 84.63,271.09 ' style='stroke-width: 1.07; stroke: #333333; stroke-linecap: butt;' />
<polyline points='81.89,236.41 84.63,236.41 ' style='stroke-width: 1.07; stroke: #333333; stroke-linecap: butt;' />
<polyline points='81.89,201.73 84.63,201.73 ' style='stroke-width: 1.07; stroke: #333333; stroke-linecap: butt;' />
<polyline points='81.89,167.05 84.63,167.05 ' style='stroke-width: 1.07; stroke: #333333; stroke-linecap: butt;' />
<polyline points='81.89,132.38 84.63,132.38 ' style='stroke-width: 1.07; stroke: #333333; stroke-linecap: butt;' />
<polyline points='81.89,97.70 84.63,97.70 ' style='stroke-width: 1.07; stroke: #333333; stroke-linecap: butt;' />
<polyline points='81.89,63.02 84.63,63.02 ' style='stroke-width: 1.07; stroke: #333333; stroke-linecap: butt;' />
<polyline points='81.89,28.35 84.63,28.35 ' style='stroke-width: 1.07; stroke: #333333; stroke-linecap: butt;' />
<polyline points='84.63,513.83 568.27,513.83 ' style='stroke-width: 1.07; stroke-linecap: butt;' />
<polyline points='84.63,516.57 84.63,513.83 ' style='stroke-width: 1.07; stroke: #333333; stroke-linecap: butt;' />
<polyline points='104.78,516.57 104.78,513.83 ' style='stroke-width: 1.07; stroke: #333333; stroke-linecap: butt;' />
<polyline points='124.94,516.57 124.94,513.83 ' style='stroke-width: 1.07; stroke: #333333; stroke-linecap: butt;' />
<polyline points='145.09,516.57 145.09,513.83 ' style='stroke-width: 1.07; stroke: #333333; stroke-linecap: butt;' />
<polyline points='165.24,516.57 165.24,513.83 ' style='stroke-width: 1.07; stroke: #333333; stroke-linecap: butt;' />
<polyline points='185.39,516.57 185.39,513.83 ' style='stroke-width: 1.07; stroke: #333333; stroke-linecap: butt;' />
<polyline points='205.54,516.57 205.54,513.83 ' style='stroke-width: 1.07; stroke: #333333; stroke-linecap: butt;' />
<polyline points='225.69,516.57 225.69,513.83 ' style='stroke-width: 1.07; stroke: #333333; stroke-linecap: butt;' />
<polyline points='245.84,516.57 245.84,513.83 ' style='stroke-width: 1.07; stroke: #333333; stroke-linecap: butt;' />
<polyline points='266.00,516.57 266.00,513.83 ' style='stroke-width: 1.07; stroke: #333333; stroke-linecap: butt;' />
<polyline points='286.15,516.57 286.15,513.83 ' style='stroke-width: 1.07; stroke: #333333; stroke-linecap: butt;' />
<polyline points='306.30,516.57 306.30,513.83 ' style='stroke-width: 1.07; stroke: #333333; stroke-linecap: butt;' />
<polyline points='326.45,516.57 326.45,513.83 ' style='stroke-width: 1.07; stroke: #333333; stroke-linecap: butt;' />
<polyline points='346.60,516.57 346.60,513.83 ' style='stroke-width: 1.07; stroke: #333333; stroke-linecap: butt;' />
<polyline points='366.75,516.57 366.75,513.83 ' style='stroke-width: 1.07; stroke: #333333; stroke-linecap: butt;' />
<polyline points='386.90,516.57 386.90,513.83 ' style='stroke-width: 1.07; stroke: #333333; stroke-linecap: butt;' />
<polyline points='407.06,516.57 407.06,513.83 ' style='stroke-width: 1.07; stroke: #333333; stroke-linecap: butt;' />
<polyline points='427.21,516.57 427.21,513.83 ' style='stroke-width: 1.07; stroke: #333333; stroke-linecap: butt;' />
<polyline points='447.36,516.57 447.36,513.83 ' style='stroke-width: 1.07; stroke: #333333; stroke-linecap: butt;' />
<polyline points='467.51,516.57 467.51,513.83 ' style='stroke-width: 1.07; stroke: #333333; stroke-linecap: butt;' />
<polyline points='487.66,516.57 487.66,513.83 ' style='stroke-width: 1.07; stroke: #333333; stroke-linecap: butt;' />
<polyline points='507.81,516.57 507.81,513.83 ' style='stroke-width: 1.07; stroke: #333333; stroke-linecap: butt;' />
<polyline points='527.96,516.57 527.96,513.83 ' style='stroke-width: 1.07; stroke: #333333; stroke-linecap: butt;' />
<polyline points='548.12,516.57 548.12,513.83 ' style='stroke-width: 1.07; stroke: #333333; stroke-linecap: butt;' />
<polyline points='568.27,516.57 568.27,513.83 ' style='stroke-width: 1.07; stroke: #333333; stroke-linecap: butt;' />
<text x='84.63' y='527.51' text-anchor='middle' style='font-size: 12.00px; font-weight: bold; font-family: "Arimo";' textLength='8.35px' lengthAdjust='spacingAndGlyphs'>0</text>
<text x='165.24' y='527.51' text-anchor='middle' style='font-size: 12.00px; font-weight: bold; font-family: "Arimo";' textLength='8.35px' lengthAdjust='spacingAndGlyphs'>4</text>
<text x='245.84' y='527.51' text-anchor='middle' style='font-size: 12.00px; font-weight: bold; font-family: "Arimo";' textLength='8.35px' lengthAdjust='spacingAndGlyphs'>8</text>
<text x='326.45' y='527.51' text-anchor='middle' style='font-size: 12.00px; font-weight: bold; font-family: "Arimo";' textLength='16.70px' lengthAdjust='spacingAndGlyphs'>12</text>
<text x='407.06' y='527.51' text-anchor='middle' style='font-size: 12.00px; font-weight: bold; font-family: "Arimo";' textLength='16.70px' lengthAdjust='spacingAndGlyphs'>16</text>
<text x='487.66' y='527.51' text-anchor='middle' style='font-size: 12.00px; font-weight: bold; font-family: "Arimo";' textLength='16.70px' lengthAdjust='spacingAndGlyphs'>20</text>
<text x='568.27' y='527.51' text-anchor='middle' style='font-size: 12.00px; font-weight: bold; font-family: "Arimo";' textLength='16.70px' lengthAdjust='spacingAndGlyphs'>24</text>
<text x='326.45' y='543.98' text-anchor='middle' style='font-size: 16.00px; font-family: "Asap";' textLength='0.00px' lengthAdjust='spacingAndGlyphs'></text>
<text x='326.45' y='561.26' text-anchor='middle' style='font-size: 16.00px; font-family: "Asap";' textLength='188.61px' lengthAdjust='spacingAndGlyphs'>Angela's hours of free time</text>
<text transform='translate(39.58,271.09) rotate(-90)' text-anchor='middle' style='font-size: 16.00px; font-family: "Asap";' textLength='112.48px' lengthAdjust='spacingAndGlyphs'>Bushels of grain</text>
<text transform='translate(56.86,271.09) rotate(-90)' text-anchor='middle' style='font-size: 16.00px; font-family: "Asap";' textLength='0.00px' lengthAdjust='spacingAndGlyphs'></text>
</g>
</svg>
